{
"autoplayBgm":false,"autoplayBgs":false,"battleback1Name":"","battleback2Name":"","bgm":{"name":"","pan":0,"pitch":100,"volume":90},"bgs":{"name":"","pan":0,"pitch":100,"volume":90},"disableDashing":false,"displayName":"","encounterList":[],"encounterStep":30,"height":26,"note":"","parallaxLoopX":false,"parallaxLoopY":false,"parallaxName":"","parallaxShow":true,"parallaxSx":0,"parallaxSy":0,"scrollType":0,"specifyBattleback":false,"tilesetId":5,"width":17,
"data":[4503,1554,1602,1576,1652,1552,0,1552,4883,4882,4886,4979,4978,4978,4978,4978,4982,4501,1554,1602,1576,1606,1552,0,1552,4881,4880,4884,4977,4976,4976,4976,4976,4980,4501,1554,1601,1576,1601,1552,0,1552,4889,4888,4892,4985,4984,4984,4984,4984,4988,4501,1554,1601,1576,1602,1552,0,1552,1552,1552,1552,1552,1552,1552,1552,1552,1552,4509,1554,1601,1576,1602,1552,0,0,0,0,0,0,0,0,0,0,0,4551,1554,1652,1576,1600,1552,0,1552,1552,1552,1552,1552,1552,1552,1552,1552,1552,4549,1554,1601,1576,1602,1552,0,1552,2994,2980,2980,2980,2980,2980,2980,2980,2980,4549,1554,1602,1576,1601,1552,1552,1552,2976,2960,2960,2960,2960,2960,2960,2960,2960,4549,1607,1603,1576,1601,1552,1552,1552,2976,2960,2960,2960,2960,2960,2960,2960,2960,4557,1554,1600,1576,1602,1552,1552,1552,2976,2960,2960,2960,2960,2960,2960,2960,2960,4407,1554,1603,1578,1652,1552,1552,1552,2976,2964,2988,2988,2988,2988,2988,2988,2988,4405,1554,1603,1576,1644,1552,1552,1552,2976,2984,2562,2548,2548,2548,2548,2548,2548,4413,1554,1603,1576,1603,1552,1552,1552,2976,2984,2544,2528,2528,2528,2528,2528,2528,5463,1554,1602,1576,1603,1552,1552,1552,2976,2984,2544,2528,2528,2528,2528,2528,2528,5461,1554,1600,1576,1603,1552,1552,1552,2976,2984,2544,2528,2528,2528,2528,2528,2528,5461,1554,1600,1577,1644,1552,1552,1552,2976,2984,2544,2528,2528,2528,2528,2528,2528,5461,1554,1603,1576,1603,1552,1552,1552,2976,2984,2544,2528,2528,2528,2528,2528,2528,5469,1554,1603,1576,1603,1552,1552,1552,2976,2984,2544,2528,2528,2528,2528,2528,2528,4599,1554,1644,1576,1600,1552,1552,1552,2976,2984,2544,2528,2528,2528,2528,2528,2528,4597,1554,1644,1576,1600,1552,1552,1552,2976,2984,2544,2528,2528,2528,2528,2528,2528,4605,1554,1603,1576,1644,1552,1552,1552,2976,2984,2544,2528,2528,2528,2528,2528,2528,4503,1554,1606,1576,1600,1552,1552,1552,2976,2984,2544,2528,2528,2528,2528,2528,2528,4501,1554,1600,1578,1603,1552,1552,1552,2976,2984,2544,2528,2528,2528,2528,2528,2528,4501,1554,1600,1576,1603,1552,1552,1552,2976,2984,2544,2528,2528,2528,2528,2528,2528,4509,1554,1603,1579,1600,1552,1552,1552,2976,2984,2544,2528,2528,2528,2528,2528,2528,4367,1554,1603,1576,1603,1552,1552,1552,2976,2984,2544,2528,2528,2528,2528,2528,2528,0,0,0,0,0,0,0,0,0,0,0,0,0,0,0,0,0,0,0,0,0,0,0,0,0,0,0,0,0,0,0,0,0,0,0,0,0,0,0,0,0,0,0,0,0,0,0,0,0,0,0,0,0,0,0,0,0,0,0,0,0,0,0,0,0,0,0,0,0,0,0,0,0,0,0,0,0,0,0,0,0,0,0,0,0,0,0,0,0,0,0,0,0,0,0,0,0,0,0,0,0,0,0,0,0,0,0,0,0,0,0,0,0,0,0,0,0,0,0,0,0,0,0,0,0,0,0,0,0,0,0,0,0,0,0,0,0,0,0,0,0,0,0,0,0,0,0,0,0,0,0,0,0,0,0,0,0,0,0,0,0,0,0,0,0,0,0,0,0,0,0,0,0,0,0,0,0,0,0,3954,3940,3940,3940,3940,3940,3940,3940,0,0,0,0,0,0,0,0,0,3936,3920,3920,3920,3920,3920,3920,3920,0,0,0,0,0,0,0,0,0,3936,3920,3920,3920,3920,3920,3920,3920,0,0,0,0,0,0,0,0,0,3936,3920,3920,3920,3920,3920,3920,3920,0,0,0,0,0,0,0,0,0,3936,3920,3920,3920,3920,3920,3920,3920,0,0,0,0,0,0,0,0,0,3936,3920,3920,3920,3920,3920,3920,3920,0,0,0,0,0,0,0,0,0,3936,3920,3920,3920,3920,3920,3920,3920,0,0,0,0,0,0,0,0,0,3936,3920,3920,3924,3948,3948,3948,3948,0,0,0,0,0,0,0,0,0,3936,3920,3920,3944,0,0,0,0,0,0,0,0,0,0,0,0,0,3936,3920,3920,3944,0,0,0,0,0,0,0,0,0,0,0,0,0,3936,3920,3920,3944,0,0,0,0,0,0,0,0,0,0,0,0,0,3936,3920,3920,3944,0,0,0,0,0,0,0,0,0,0,0,0,0,3936,3920,3920,3944,0,0,0,0,0,0,0,0,0,0,0,0,0,3936,3920,3920,3944,0,0,0,0,0,0,0,0,0,0,0,0,0,3936,3920,3920,3944,0,0,0,0,0,0,0,0,0,0,0,0,0,3936,3920,3920,3944,0,0,0,0,0,0,0,0,0,0,0,0,0,0,0,0,0,0,0,0,0,0,0,0,0,0,0,0,0,0,0,0,0,0,0,0,0,0,0,0,0,0,0,0,0,0,0,0,0,0,0,0,0,0,0,0,0,0,0,0,0,0,0,0,0,0,0,0,0,0,0,0,0,0,0,0,0,0,553,0,537,0,0,537,537,0,537,537,537,0,0,0,0,323,0,0,0,0,0,0,0,0,0,0,0,0,0,0,0,0,0,0,536,44,0,0,0,0,0,0,0,0,0,0,0,0,0,0,0,0,0,0,0,0,0,0,0,0,0,0,0,0,0,0,0,0,0,0,0,0,0,0,0,0,0,0,0,0,0,0,0,0,0,0,0,0,0,0,0,0,0,0,0,0,0,0,0,0,0,0,0,0,0,475,0,0,0,0,0,0,0,0,0,0,0,0,0,0,0,0,0,0,0,0,0,0,0,0,0,0,0,0,0,0,0,0,0,0,0,0,0,0,0,0,0,0,0,0,0,0,0,0,0,0,0,0,0,0,0,0,0,0,0,0,0,0,0,0,0,0,0,0,0,0,0,0,0,0,0,0,0,0,0,0,0,0,0,0,0,0,0,0,0,0,0,0,0,0,0,0,0,0,0,0,0,0,0,0,0,0,0,0,0,0,0,0,0,0,0,0,0,0,0,0,0,0,0,0,0,0,0,0,0,0,0,0,0,0,0,0,0,0,0,0,0,0,0,0,0,0,0,0,0,0,0,0,0,0,0,0,0,0,0,0,0,0,0,0,0,0,0,0,0,0,0,0,0,0,0,0,0,0,0,0,0,0,0,0,0,0,0,0,0,0,0,0,0,0,0,0,0,0,0,0,0,0,0,0,0,0,0,0,0,0,0,0,0,0,0,173,0,0,0,0,0,0,0,0,0,0,0,0,0,0,0,0,181,0,0,0,0,0,0,0,0,0,0,0,0,0,0,0,0,0,0,0,0,0,0,0,0,0,0,0,0,0,0,85,0,0,316,0,536,0,0,0,0,0,64,0,64,0,0,0,93,0,0,316,0,536,0,0,56,0,0,72,0,72,0,0,0,191,0,0,323,41,536,0,0,59,0,0,56,85,56,58,0,0,0,0,0,314,49,536,0,52,0,0,0,0,93,0,0,0,0,0,0,0,323,0,552,537,52,537,537,192,193,537,194,195,46,0,0,0,0,314,0,536,0,52,0,0,200,201,0,202,203,0,0,80,0,0,316,44,44,42,0,134,135,0,153,0,0,357,358,0,0,0,0,316,0,536,50,0,0,0,0,0,0,0,365,366,0,85,0,0,316,0,536,0,0,0,0,292,293,293,294,0,292,0,93,0,0,316,0,536,0,0,459,459,459,459,459,459,459,459,0,0,0,0,323,0,536,0,0,302,475,475,475,475,475,475,475,0,278,0,0,314,0,536,0,0,302,289,352,288,0,141,0,277,0,286,0,0,316,0,536,0,0,302,0,360,0,289,149,0,285,0,0,0,0,316,0,536,0,0,302,0,0,0,260,261,262,0,0,85,0,0,316,0,536,0,0,302,0,288,0,268,269,0,277,0,93,0,0,323,0,536,0,0,302,0,0,141,262,0,0,285,0,90,0,0,314,0,536,0,0,302,289,0,149,0,275,276,288,0,98,0,0,316,0,536,0,0,0,0,0,0,0,0,0,0,0,0,0,0,316,0,536,0,0,0,0,0,0,0,0,0,0,0,0,0,0,316,0,536,0,0,0,0,0,0,0,0,0,0,0,81,0,0,316,0,536,0,0,0,0,0,0,0,0,0,0,0,0,0,0,316,0,536,0,0,0,0,0,0,0,0,0,0,0,351,0,0,316,0,536,0,0,0,0,0,0,0,0,0,0,0,82,0,0,316,0,536,0,0,0,0,0,0,0,0,0,0,0,85,0,0,316,0,536,0,0,0,0,0,0,0,0,0,0,0,93,0,0,316,522,536,0,0,0,0,0,0,0,0,0,0,0,5,0,0,0,0,0,0,0,0,0,0,0,0,0,0,0,0,5,0,0,0,0,0,0,0,0,0,0,0,0,0,0,0,0,5,0,0,0,0,0,0,0,0,0,0,0,0,0,0,0,0,5,0,0,0,0,0,0,0,0,0,0,0,0,0,0,0,0,5,0,0,0,0,0,0,0,0,0,0,0,0,0,0,0,0,5,0,0,0,0,0,0,0,0,0,0,0,0,0,0,0,0,5,0,0,0,0,0,0,0,0,0,0,0,0,0,0,0,0,5,0,0,0,0,0,0,0,0,0,0,0,0,0,0,0,0,5,0,0,0,0,0,0,0,0,0,0,0,0,0,0,0,0,5,0,0,0,0,0,0,0,0,0,0,0,0,0,0,0,0,5,0,0,0,0,0,0,0,0,0,0,0,0,0,0,0,0,5,0,0,0,0,0,0,0,0,0,0,0,0,0,0,0,0,5,0,0,0,0,0,0,0,0,0,0,0,0,0,0,0,0,5,0,0,0,0,0,0,0,0,0,0,0,0,0,0,0,0,5,0,0,0,0,0,0,0,0,0,0,0,0,0,0,0,0,5,0,0,0,0,0,0,0,0,0,0,0,0,0,0,0,0,5,0,0,0,0,0,0,0,0,0,0,0,0,0,0,0,0,5,0,0,0,0,0,0,0,0,0,0,0,0,0,0,0,0,5,0,0,0,0,0,0,0,0,0,0,0,0,0,0,0,0,5,0,0,0,0,0,0,0,0,0,0,0,0,0,0,0,0,5,0,0,0,0,0,0,0,0,0,0,0,0,0,0,0,0,5,0,0,0,0,0,0,0,0,0,0,0,0,0,0,0,0,5,0,0,0,0,0,0,0,0,0,0,0,0,0,0,0,0,5,0,0,0,0,0,0,0,0,0,0,0,0,0,0,0,0,5,0,0,0,0,0,0,0,0,0,0,0,0,0,0,0,0,5,0,0,0,0,0,0,0,0,0,0,0,0,0,0,0,0,0,0,0,0,0,0,0,0,0,0,0,0,0,0,0,0,0,0,0,0,0,0,0,0,0,0,0,0,0,0,0,0,0,0,0,0,0,0,0,0,0,0,0,0,0,0,0,0,0,0,0,0,0,0,0,0,0,0,0,0,0,0,0,0,0,0,0,0,0,0,0,0,0,0,0,0,0,0,0,0,0,0,0,0,0,0,0,0,0,0,0,0,0,0,0,0,0,0,0,0,0,0,0,0,0,0,0,0,0,0,0,0,0,0,0,0,0,0,0,0,0,0,0,0,0,0,0,0,0,0,0,0,0,0,0,0,0,0,0,0,0,0,0,0,0,0,0,0,0,0,0,0,0,0,0,0,0,0,0,0,0,0,0,0,0,0,0,0,0,0,0,0,0,0,0,0,0,0,0,0,0,0,0,0,0,0,0,0,0,0,0,0,0,0,0,0,0,0,0,0,0,0,0,0,0,0,0,0,0,0,0,0,0,0,0,0,0,0,0,0,0,0,0,0,0,0,0,0,0,0,0,0,0,0,0,0,0,0,0,0,0,0,0,0,0,0,0,0,0,0,0,0,0,0,0,0,0,0,0,0,0,0,0,0,0,0,0,0,0,0,0,0,0,0,0,0,0,0,0,0,0,0,0,0,0,0,0,0,0,0,0,0,0,0,0,0,0,0,0,0,0,0,0,0,0,0,0,0,0,0,0,0,0,0,0,0,0,0,0,0,0,0,0,0,0,0,0,0,0,0,0,0,0,0,0,0,0,0,0,0,0,0,0,0,0,0,0,0,0,0,0,0,0,0,0,0,0,0,0,0,0,0,0,0,0,0,0,0,0,0,0,0,0,0,0,0,0,0,0,0,0,0,0,0,0,0,0,0,0,0,0,0,0,0,0,0,0,0,0,0,0,0,0,0,0,0,0,0,0,0,0,0,0,0,0,0,0,0,0,0,0,0,0,0,0,0,0,0,0,0,0,0,0,0,0,0,0,0,0,0,0],
"events":[
null,
{"id":1,"name":"EV001","note":"","pages":[{"conditions":{"actorId":1,"actorValid":false,"itemId":1,"itemValid":false,"selfSwitchCh":"A","selfSwitchValid":false,"switch1Id":1,"switch1Valid":false,"switch2Id":1,"switch2Valid":false,"variableId":1,"variableValid":false,"variableValue":0},"directionFix":false,"image":{"characterIndex":0,"characterName":"","direction":2,"pattern":0,"tileId":0},"list":[{"code":111,"indent":0,"parameters":[0,309,1]},{"code":111,"indent":1,"parameters":[6,-1,2]},{"code":201,"indent":2,"parameters":[0,11,3,0,2,0]},{"code":0,"indent":2,"parameters":[]},{"code":412,"indent":1,"parameters":[]},{"code":0,"indent":1,"parameters":[]},{"code":412,"indent":0,"parameters":[]},{"code":0,"indent":0,"parameters":[]}],"moveFrequency":3,"moveRoute":{"list":[{"code":0,"parameters":[]}],"repeat":true,"skippable":false,"wait":false},"moveSpeed":3,"moveType":0,"priorityType":0,"stepAnime":false,"through":true,"trigger":1,"walkAnime":true}],"x":3,"y":25},
{"id":2,"name":"EV002","note":"","pages":[{"conditions":{"actorId":1,"actorValid":false,"itemId":1,"itemValid":false,"selfSwitchCh":"A","selfSwitchValid":false,"switch1Id":1,"switch1Valid":false,"switch2Id":1,"switch2Valid":false,"variableId":1,"variableValid":false,"variableValue":0},"directionFix":false,"image":{"characterIndex":0,"characterName":"","direction":2,"pattern":0,"tileId":0},"list":[{"code":111,"indent":0,"parameters":[0,309,1]},{"code":111,"indent":1,"parameters":[6,-1,8]},{"code":201,"indent":2,"parameters":[0,13,3,31,8,0]},{"code":0,"indent":2,"parameters":[]},{"code":412,"indent":1,"parameters":[]},{"code":0,"indent":1,"parameters":[]},{"code":412,"indent":0,"parameters":[]},{"code":0,"indent":0,"parameters":[]}],"moveFrequency":3,"moveRoute":{"list":[{"code":0,"parameters":[]}],"repeat":true,"skippable":false,"wait":false},"moveSpeed":3,"moveType":0,"priorityType":0,"stepAnime":false,"through":true,"trigger":1,"walkAnime":true}],"x":3,"y":0},
{"id":3,"name":"pink boy","note":"","pages":[{"conditions":{"actorId":1,"actorValid":false,"itemId":1,"itemValid":false,"selfSwitchCh":"A","selfSwitchValid":false,"switch1Id":104,"switch1Valid":true,"switch2Id":1,"switch2Valid":false,"variableId":1,"variableValid":false,"variableValue":0},"directionFix":false,"image":{"tileId":0,"characterName":"$benjamin","direction":2,"pattern":1,"characterIndex":0},"list":[{"code":121,"indent":0,"parameters":[309,309,0]},{"code":205,"indent":0,"parameters":[3,{"list":[{"code":39,"indent":null},{"code":0}],"repeat":false,"skippable":false,"wait":true}]},{"code":505,"indent":0,"parameters":[{"code":39,"indent":null}]},{"code":250,"indent":0,"parameters":[{"name":"Blow1","volume":100,"pitch":100,"pan":0}]},{"code":205,"indent":0,"parameters":[-1,{"list":[{"code":17,"indent":null},{"code":41,"parameters":["$Masato_squatting",0],"indent":null},{"code":17,"indent":null},{"code":0}],"repeat":false,"skippable":false,"wait":false}]},{"code":505,"indent":0,"parameters":[{"code":17,"indent":null}]},{"code":505,"indent":0,"parameters":[{"code":41,"parameters":["$Masato_squatting",0],"indent":null}]},{"code":505,"indent":0,"parameters":[{"code":17,"indent":null}]},{"code":101,"indent":0,"parameters":["masato",11,0,2]},{"code":401,"indent":0,"parameters":["雅人："]},{"code":401,"indent":0,"parameters":["…逮着你了……！"]},{"code":242,"indent":0,"parameters":[3]},{"code":101,"indent":0,"parameters":["ben",8,0,2]},{"code":401,"indent":0,"parameters":["粉红男孩："]},{"code":401,"indent":0,"parameters":["嗳哟喂，哥们儿，有话好好说……您先让我起来成不？"]},{"code":101,"indent":0,"parameters":["masato",12,0,2]},{"code":401,"indent":0,"parameters":["雅人："]},{"code":401,"indent":0,"parameters":["……哼。"]},{"code":101,"indent":0,"parameters":["ben",7,0,2]},{"code":401,"indent":0,"parameters":["粉红男孩："]},{"code":401,"indent":0,"parameters":["哥们儿，您也太猛了。"]},{"code":101,"indent":0,"parameters":["masato",1,0,2]},{"code":401,"indent":0,"parameters":["雅人："]},{"code":401,"indent":0,"parameters":["你给我老实交待。到我家门口来干什么？"]},{"code":101,"indent":0,"parameters":["ben",9,0,2]},{"code":401,"indent":0,"parameters":["粉红男孩："]},{"code":401,"indent":0,"parameters":["哎哟疼疼疼……"]},{"code":401,"indent":0,"parameters":["您说这您家门口又不是您家里头，"]},{"code":401,"indent":0,"parameters":["我怎么就不能来晃悠晃悠了？"]},{"code":101,"indent":0,"parameters":["masato",0,0,2]},{"code":401,"indent":0,"parameters":["雅人："]},{"code":401,"indent":0,"parameters":["那我怎么就不能问问你为什么了？"]},{"code":101,"indent":0,"parameters":["ben",7,0,2]},{"code":401,"indent":0,"parameters":["粉红男孩："]},{"code":401,"indent":0,"parameters":["——疼、疼、疼！"]},{"code":401,"indent":0,"parameters":["成……我告诉您还不行吗！"]},{"code":401,"indent":0,"parameters":["哎哟喂，别碰那儿，扭着了……"]},{"code":101,"indent":0,"parameters":["masato",12,0,2]},{"code":401,"indent":0,"parameters":["雅人："]},{"code":401,"indent":0,"parameters":["算你机灵。"]},{"code":221,"indent":0,"parameters":[]},{"code":230,"indent":0,"parameters":[60]},{"code":205,"indent":0,"parameters":[3,{"list":[{"code":40,"indent":null},{"code":25,"indent":null},{"code":0}],"repeat":false,"skippable":false,"wait":false}]},{"code":505,"indent":0,"parameters":[{"code":40,"indent":null}]},{"code":505,"indent":0,"parameters":[{"code":25,"indent":null}]},{"code":205,"indent":0,"parameters":[-1,{"list":[{"code":41,"parameters":["$masato",0],"indent":null},{"code":45,"parameters":["Turn Towards: Event 3"],"indent":null},{"code":0}],"repeat":false,"skippable":false,"wait":true}]},{"code":505,"indent":0,"parameters":[{"code":41,"parameters":["$masato",0],"indent":null}]},{"code":505,"indent":0,"parameters":[{"code":45,"parameters":["Turn Towards: Event 3"],"indent":null}]},{"code":222,"indent":0,"parameters":[]},{"code":241,"indent":0,"parameters":[{"name":"pink boy","volume":100,"pitch":100,"pan":0}]},{"code":101,"indent":0,"parameters":["ben",6,0,2]},{"code":401,"indent":0,"parameters":["粉红男孩："]},{"code":401,"indent":0,"parameters":["哥们儿，我真就是来观光的。"]},{"code":401,"indent":0,"parameters":["阳关区，人家说是关南市里最有文艺气息的街区，"]},{"code":401,"indent":0,"parameters":["我就来了……我没别的意思！"]},{"code":101,"indent":0,"parameters":["masato",5,0,2]},{"code":401,"indent":0,"parameters":["雅人："]},{"code":401,"indent":0,"parameters":["扯淡。"]},{"code":101,"indent":0,"parameters":["ben",8,0,2]},{"code":401,"indent":0,"parameters":["粉红男孩："]},{"code":401,"indent":0,"parameters":["我真没跟您扯淡！我在这关南市上了四年学，"]},{"code":401,"indent":0,"parameters":["可是这旮旯儿我从来没来过！"]},{"code":401,"indent":0,"parameters":["我真不知道您那房子是民居啊……"]},{"code":101,"indent":0,"parameters":["ben",8,0,2]},{"code":401,"indent":0,"parameters":["粉红男孩："]},{"code":401,"indent":0,"parameters":["我以为是文物呢！"]},{"code":401,"indent":0,"parameters":["四合院儿什么的……不都是文化遗产吗！"]},{"code":101,"indent":0,"parameters":["masato",0,0,2]},{"code":401,"indent":0,"parameters":["雅人："]},{"code":401,"indent":0,"parameters":["…………"]},{"code":101,"indent":0,"parameters":["",0,0,2]},{"code":401,"indent":0,"parameters":["语气是很诚恳……甚至诚恳得过了头了。"]},{"code":101,"indent":0,"parameters":["",0,0,2]},{"code":401,"indent":0,"parameters":["不过，我是不是应该相信……"]},{"code":401,"indent":0,"parameters":["这家伙真的只是个十足的白痴呢？！"]},{"code":102,"indent":0,"parameters":[["是白痴","是骗子"],-1,-1,2,0]},{"code":402,"indent":0,"parameters":[0,"是白痴"]},{"code":122,"indent":1,"parameters":[5,5,1,0,1]},{"code":101,"indent":1,"parameters":["masato",1,0,2]},{"code":401,"indent":1,"parameters":["雅人："]},{"code":401,"indent":1,"parameters":["……你傻啊。"]},{"code":101,"indent":1,"parameters":["masato",12,0,2]},{"code":401,"indent":1,"parameters":["雅人："]},{"code":401,"indent":1,"parameters":["你抬眼看看，这地方哪里像观光区了。"]},{"code":101,"indent":1,"parameters":["ben",6,0,2]},{"code":401,"indent":1,"parameters":["粉红男孩："]},{"code":401,"indent":1,"parameters":["不……不像吗？"]},{"code":101,"indent":1,"parameters":["masato",5,0,2]},{"code":401,"indent":1,"parameters":["雅人："]},{"code":401,"indent":1,"parameters":["别看白天连个人影都没有；"]},{"code":401,"indent":1,"parameters":["一到晚上，什么人都可能出现。"]},{"code":401,"indent":1,"parameters":["你胆子不小啊。"]},{"code":101,"indent":1,"parameters":["ben",6,0,2]},{"code":401,"indent":1,"parameters":["粉红男孩："]},{"code":401,"indent":1,"parameters":["可是……我看孤独火球上说，这儿还算挺有名的。"]},{"code":101,"indent":1,"parameters":["masato",7,0,2]},{"code":401,"indent":1,"parameters":["雅人："]},{"code":401,"indent":1,"parameters":["……孤独……火球？"]},{"code":101,"indent":1,"parameters":["ben",0,0,2]},{"code":401,"indent":1,"parameters":["粉红男孩："]},{"code":401,"indent":1,"parameters":["Lonely Plummet啊。"]},{"code":401,"indent":1,"parameters":["倍儿有名的一个旅游指南书。我全套都有……"]},{"code":101,"indent":1,"parameters":["",0,0,2]},{"code":401,"indent":1,"parameters":["………是在哪个盗版摊子上淘来的？！"]},{"code":0,"indent":1,"parameters":[]},{"code":402,"indent":0,"parameters":[1,"是骗子"]},{"code":101,"indent":1,"parameters":["masato",12,0,2]},{"code":401,"indent":1,"parameters":["雅人："]},{"code":401,"indent":1,"parameters":["哼……"]},{"code":101,"indent":1,"parameters":["ben",8,0,2]},{"code":401,"indent":1,"parameters":["粉红男孩："]},{"code":401,"indent":1,"parameters":["笑……笑什么？"]},{"code":101,"indent":1,"parameters":["masato",1,0,2]},{"code":401,"indent":1,"parameters":["雅人："]},{"code":401,"indent":1,"parameters":["说谎也要打草稿吧？你出门不带脑袋么。"]},{"code":101,"indent":1,"parameters":["ben",5,0,2]},{"code":401,"indent":1,"parameters":["粉红男孩："]},{"code":401,"indent":1,"parameters":["你……你这人怎么这么说话啊？"]},{"code":101,"indent":1,"parameters":["masato",0,0,2]},{"code":401,"indent":1,"parameters":["雅人："]},{"code":401,"indent":1,"parameters":["怎么会有人觉得我住的街区是观光区呢？"]},{"code":401,"indent":1,"parameters":["不然的话……这里的地价未免也太贱了吧。"]},{"code":101,"indent":1,"parameters":["ben",6,0,2]},{"code":401,"indent":1,"parameters":["粉红男孩："]},{"code":401,"indent":1,"parameters":["……呜。"]},{"code":101,"indent":1,"parameters":["masato",5,0,2]},{"code":401,"indent":1,"parameters":["雅人："]},{"code":401,"indent":1,"parameters":["所以，你一定是有什么别的目的。"]},{"code":101,"indent":1,"parameters":["ben",3,0,2]},{"code":401,"indent":1,"parameters":["粉红男孩："]},{"code":401,"indent":1,"parameters":["别的……目的？！"]},{"code":101,"indent":1,"parameters":["masato",5,0,2]},{"code":401,"indent":1,"parameters":["雅人："]},{"code":401,"indent":1,"parameters":["没错。别的目的。"]},{"code":101,"indent":1,"parameters":["ben",4,0,2]},{"code":401,"indent":1,"parameters":["粉红男孩："]},{"code":401,"indent":1,"parameters":["那您倒是说说……我有什么目的啊？"]},{"code":101,"indent":1,"parameters":["masato",7,0,2]},{"code":401,"indent":1,"parameters":["雅人："]},{"code":401,"indent":1,"parameters":["……！"]},{"code":101,"indent":1,"parameters":["ben",1,0,2]},{"code":401,"indent":1,"parameters":["粉红男孩："]},{"code":401,"indent":1,"parameters":["咱们国家诉讼法的第一条基本原则……"]},{"code":401,"indent":1,"parameters":["谁主张谁举证啊。"]},{"code":101,"indent":1,"parameters":["masato",0,0,2]},{"code":401,"indent":1,"parameters":["雅人："]},{"code":401,"indent":1,"parameters":["……"]},{"code":101,"indent":1,"parameters":["",0,0,2]},{"code":401,"indent":1,"parameters":["我无凭无据就把这人扑倒在地，现在又拿不出像样的理由"]},{"code":401,"indent":1,"parameters":["反驳他的说辞，的确是我理亏。"]},{"code":101,"indent":1,"parameters":["",0,0,2]},{"code":401,"indent":1,"parameters":["人……不能不讲理。"]},{"code":0,"indent":1,"parameters":[]},{"code":404,"indent":0,"parameters":[]},{"code":101,"indent":0,"parameters":["masato",15,0,2]},{"code":401,"indent":0,"parameters":["雅人："]},{"code":401,"indent":0,"parameters":["好吧……对于你的目的，现在我的确无法下结论。"]},{"code":101,"indent":0,"parameters":["ben",0,0,2]},{"code":401,"indent":0,"parameters":["粉红男孩："]},{"code":401,"indent":0,"parameters":["那您还搞什么突然袭击啊……吓死我了都。"]},{"code":101,"indent":0,"parameters":["masato",2,0,2]},{"code":401,"indent":0,"parameters":["雅人："]},{"code":401,"indent":0,"parameters":["……等等，是你自己一看见我就跑路吧。"]},{"code":401,"indent":0,"parameters":["要不然，我也不至于追你追这么久。"]},{"code":101,"indent":0,"parameters":["ben",1,0,2]},{"code":401,"indent":0,"parameters":["粉红男孩："]},{"code":401,"indent":0,"parameters":["您那张脸上明明白白写着要收拾我，我还不跑？"]},{"code":401,"indent":0,"parameters":["虽然我是来观光的，但我也知道这儿治安差啊。"]},{"code":101,"indent":0,"parameters":["",0,0,2]},{"code":401,"indent":0,"parameters":["……结果我反倒被当成坏人了？！"]},{"code":101,"indent":0,"parameters":["masato",12,0,2]},{"code":401,"indent":0,"parameters":["雅人："]},{"code":401,"indent":0,"parameters":["好吧。那我就算认错人了。错怪你了，对不起。"]},{"code":101,"indent":0,"parameters":["ben",2,0,2]},{"code":401,"indent":0,"parameters":["粉红男孩："]},{"code":401,"indent":0,"parameters":["嘿嘿，过则勿惮改嘛。"]},{"code":101,"indent":0,"parameters":["masato",2,0,2]},{"code":401,"indent":0,"parameters":["雅人："]},{"code":401,"indent":0,"parameters":["……搅了你游览的兴致真是抱歉。"]},{"code":401,"indent":0,"parameters":["不过，这个地方治安的确不好，"]},{"code":401,"indent":0,"parameters":["你最好不要半夜在这里闲逛。"]},{"code":101,"indent":0,"parameters":["ben",0,0,2]},{"code":401,"indent":0,"parameters":["粉红男孩："]},{"code":401,"indent":0,"parameters":["磁器，看不出来——您原来是个好人啊。"]},{"code":101,"indent":0,"parameters":["masato",7,0,2]},{"code":401,"indent":0,"parameters":["雅人："]},{"code":401,"indent":0,"parameters":["……磁器？"]},{"code":101,"indent":0,"parameters":["ben",1,0,2]},{"code":401,"indent":0,"parameters":["粉红男孩："]},{"code":401,"indent":0,"parameters":["那我走了，回见了您。"]},{"code":101,"indent":0,"parameters":["masato",14,0,2]},{"code":401,"indent":0,"parameters":["雅人："]},{"code":401,"indent":0,"parameters":["嗯。不要再到这附近来了。"]},{"code":242,"indent":0,"parameters":[5]},{"code":221,"indent":0,"parameters":[]},{"code":230,"indent":0,"parameters":[30]},{"code":205,"indent":0,"parameters":[3,{"list":[{"code":39,"indent":null},{"code":37,"indent":null},{"code":0}],"repeat":false,"skippable":false,"wait":true}]},{"code":505,"indent":0,"parameters":[{"code":39,"indent":null}]},{"code":505,"indent":0,"parameters":[{"code":37,"indent":null}]},{"code":230,"indent":0,"parameters":[30]},{"code":222,"indent":0,"parameters":[]},{"code":101,"indent":0,"parameters":["masato",15,0,2]},{"code":401,"indent":0,"parameters":["雅人："]},{"code":401,"indent":0,"parameters":["尽遇到些不寻常的人。"]},{"code":101,"indent":0,"parameters":["",0,0,2]},{"code":401,"indent":0,"parameters":["继续赶路吧。又耽搁时间了。"]},{"code":122,"indent":0,"parameters":[1,1,0,0,25]},{"code":121,"indent":0,"parameters":[309,309,1]},{"code":121,"indent":0,"parameters":[104,104,1]},{"code":0,"indent":0,"parameters":[]}],"moveFrequency":3,"moveRoute":{"list":[{"code":0,"parameters":[]}],"repeat":true,"skippable":false,"wait":false},"moveSpeed":3,"moveType":0,"priorityType":1,"stepAnime":false,"through":false,"trigger":1,"walkAnime":true}],"x":2,"y":22},
{"id":4,"name":"EV004","note":"","pages":[{"conditions":{"actorId":1,"actorValid":false,"itemId":1,"itemValid":false,"selfSwitchCh":"A","selfSwitchValid":false,"switch1Id":1,"switch1Valid":false,"switch2Id":1,"switch2Valid":false,"variableId":1,"variableValid":false,"variableValue":0},"directionFix":false,"image":{"characterIndex":0,"characterName":"","direction":2,"pattern":0,"tileId":0},"list":[{"code":111,"indent":0,"parameters":[1,1,0,122,0]},{"code":205,"indent":1,"parameters":[-1,{"list":[{"code":40,"indent":null},{"code":45,"parameters":["MOVE TO: 6, 25"],"indent":null},{"code":39,"indent":null},{"code":0}],"repeat":false,"skippable":true,"wait":false}]},{"code":505,"indent":1,"parameters":[{"code":40,"indent":null}]},{"code":505,"indent":1,"parameters":[{"code":45,"parameters":["MOVE TO: 6, 25"],"indent":null}]},{"code":505,"indent":1,"parameters":[{"code":39,"indent":null}]},{"code":101,"indent":1,"parameters":["ken",5,0,2]},{"code":401,"indent":1,"parameters":["老邢："]},{"code":401,"indent":1,"parameters":["我在证据不足的情况下将你视为罪犯，"]},{"code":401,"indent":1,"parameters":["对你进行了非法刑讯，而没有给你自辩的"]},{"code":401,"indent":1,"parameters":["合法权益。"]},{"code":101,"indent":1,"parameters":["ken",3,0,2]},{"code":401,"indent":1,"parameters":["老邢："]},{"code":401,"indent":1,"parameters":["这件事，是我成为刑警这二十多年来犯下的"]},{"code":401,"indent":1,"parameters":["最大错误……而我也为此付出了代价。"]},{"code":101,"indent":1,"parameters":["ken",3,0,2]},{"code":401,"indent":1,"parameters":["老邢："]},{"code":401,"indent":1,"parameters":["我在追求正义的道路上……迷失了方向。"]},{"code":101,"indent":1,"parameters":["masato",5,0,2]},{"code":401,"indent":1,"parameters":["雅人："]},{"code":401,"indent":1,"parameters":["……"]},{"code":101,"indent":1,"parameters":["masato",22,0,2]},{"code":401,"indent":1,"parameters":["雅人："]},{"code":401,"indent":1,"parameters":["……为什么突然对我说这些？"]},{"code":101,"indent":1,"parameters":["ken",5,0,2]},{"code":401,"indent":1,"parameters":["老邢："]},{"code":401,"indent":1,"parameters":["我……这次允许你进行时间穿越，"]},{"code":401,"indent":1,"parameters":["其实已经违反了一个警察的准则。"]},{"code":101,"indent":1,"parameters":["ken",0,0,2]},{"code":401,"indent":1,"parameters":["老邢："]},{"code":401,"indent":1,"parameters":["我本不应该放任你去进行违法活动，"]},{"code":401,"indent":1,"parameters":["可是我无论如何也说服不了自己。"]},{"code":101,"indent":1,"parameters":["ken",6,0,2]},{"code":401,"indent":1,"parameters":["老邢："]},{"code":401,"indent":1,"parameters":["可我在想，现在这样做……是不是又和五年前"]},{"code":401,"indent":1,"parameters":["的自己一样了？"]},{"code":101,"indent":1,"parameters":["ken",0,0,2]},{"code":401,"indent":1,"parameters":["老邢："]},{"code":401,"indent":1,"parameters":["为了追求一个理想的结果，而罔顾过程的"]},{"code":401,"indent":1,"parameters":["正当与否……"]},{"code":101,"indent":1,"parameters":["masato",14,0,2]},{"code":401,"indent":1,"parameters":["雅人："]},{"code":401,"indent":1,"parameters":["邢警官——"]},{"code":101,"indent":1,"parameters":["ken",2,0,2]},{"code":401,"indent":1,"parameters":["老邢："]},{"code":401,"indent":1,"parameters":["而且，我如果放你进了时间机器，"]},{"code":401,"indent":1,"parameters":["之后你要怎么做，完全是你的自由。"]},{"code":101,"indent":1,"parameters":["masato",2,0,2]},{"code":401,"indent":1,"parameters":["雅人："]},{"code":401,"indent":1,"parameters":["……"]},{"code":101,"indent":1,"parameters":["ken",2,0,2]},{"code":401,"indent":1,"parameters":["老邢："]},{"code":401,"indent":1,"parameters":["你可以选择救郭婉君，也可以选择……"]},{"code":101,"indent":1,"parameters":["ken",5,0,2]},{"code":401,"indent":1,"parameters":["老邢："]},{"code":401,"indent":1,"parameters":["回到五年之前，救你的女朋友。"]},{"code":101,"indent":1,"parameters":["masato",8,0,2]},{"code":401,"indent":1,"parameters":["雅人："]},{"code":401,"indent":1,"parameters":["……！"]},{"code":101,"indent":1,"parameters":["ken",5,0,2]},{"code":401,"indent":1,"parameters":["老邢："]},{"code":401,"indent":1,"parameters":["你发明时间机器就是为了这个，对吧？"]},{"code":101,"indent":1,"parameters":["ken",0,0,2]},{"code":401,"indent":1,"parameters":["老邢："]},{"code":401,"indent":1,"parameters":["如果是我，我就会那么做。"]},{"code":101,"indent":1,"parameters":["ken",0,0,2]},{"code":401,"indent":1,"parameters":["老邢："]},{"code":401,"indent":1,"parameters":["而我……也已经没有资格，用正义去绑架你"]},{"code":401,"indent":1,"parameters":["做决定了。"]},{"code":101,"indent":1,"parameters":["masato",11,0,2]},{"code":401,"indent":1,"parameters":["雅人："]},{"code":401,"indent":1,"parameters":["……邢警官。  "]},{"code":102,"indent":1,"parameters":[["我当然会去救她","其实我也在思考"],-1,-1,1,1]},{"code":402,"indent":1,"parameters":[0,"我当然会去救她"]},{"code":0,"indent":2,"parameters":[]},{"code":402,"indent":1,"parameters":[1,"其实我也在思考"]},{"code":0,"indent":2,"parameters":[]},{"code":404,"indent":1,"parameters":[]},{"code":101,"indent":1,"parameters":["masato",2,0,2]},{"code":401,"indent":1,"parameters":["雅人："]},{"code":401,"indent":1,"parameters":["郭婉君曾经对我说过，我们研究者既然手中"]},{"code":401,"indent":1,"parameters":["握有技术，就负有正确应用它们的责任。"]},{"code":101,"indent":1,"parameters":["masato",15,0,2]},{"code":401,"indent":1,"parameters":["雅人："]},{"code":401,"indent":1,"parameters":["可我在制造时间机器时……已经完全抛掉了这些。"]},{"code":101,"indent":1,"parameters":["masato",12,0,2]},{"code":401,"indent":1,"parameters":["雅人："]},{"code":401,"indent":1,"parameters":["我的心中……只有对这个世界的怨恨，和"]},{"code":401,"indent":1,"parameters":["失去她的悲痛。"]},{"code":101,"indent":1,"parameters":["masato",5,0,2]},{"code":401,"indent":1,"parameters":["雅人："]},{"code":401,"indent":1,"parameters":["所以我希望你能理解那时的我……"]},{"code":401,"indent":1,"parameters":["我相信，如果有重新选择的机会，当时的我"]},{"code":401,"indent":1,"parameters":["仍然会这样做。"]},{"code":101,"indent":1,"parameters":["masato",12,0,2]},{"code":401,"indent":1,"parameters":["雅人："]},{"code":401,"indent":1,"parameters":["但现在，就是如今的我替当时的自己……"]},{"code":401,"indent":1,"parameters":["赎罪的时候。"]},{"code":101,"indent":1,"parameters":["masato",22,0,2]},{"code":401,"indent":1,"parameters":["雅人："]},{"code":401,"indent":1,"parameters":["只有把因我而起的一切罪孽抹消，我才有"]},{"code":401,"indent":1,"parameters":["回去见她的资格……"]},{"code":201,"indent":1,"parameters":[0,17,11,25,8,0]},{"code":0,"indent":1,"parameters":[]},{"code":412,"indent":0,"parameters":[]},{"code":111,"indent":0,"parameters":[1,1,0,114,0]},{"code":231,"indent":1,"parameters":[1,"shadow3",0,0,0,0,100,100,255,0]},{"code":129,"indent":1,"parameters":[3,0,false]},{"code":129,"indent":1,"parameters":[1,1,false]},{"code":205,"indent":1,"parameters":[-1,{"list":[{"code":29,"parameters":[2],"indent":null},{"code":45,"parameters":["MOVE TO: 6, 0"],"indent":null},{"code":37,"indent":null},{"code":39,"indent":null},{"code":0}],"repeat":false,"skippable":true,"wait":false}]},{"code":505,"indent":1,"parameters":[{"code":29,"parameters":[2],"indent":null}]},{"code":505,"indent":1,"parameters":[{"code":45,"parameters":["MOVE TO: 6, 0"],"indent":null}]},{"code":505,"indent":1,"parameters":[{"code":37,"indent":null}]},{"code":505,"indent":1,"parameters":[{"code":39,"indent":null}]},{"code":222,"indent":1,"parameters":[]},{"code":223,"indent":1,"parameters":[[0,0,0,0],120,true]},{"code":241,"indent":1,"parameters":[{"name":"apprentice memory ver","volume":90,"pitch":100,"pan":0}]},{"code":105,"indent":1,"parameters":[1,true]},{"code":405,"indent":1,"parameters":["\\C[31]    十一岁时我成了孤儿，背井离乡到珠州去投奔我的"]},{"code":405,"indent":1,"parameters":["一个远房叔父，在他开的烟酒店里做学徒以维持生计。"]},{"code":405,"indent":1,"parameters":["少年时我瘦弱而矜持，这寄人篱下的生活因而讨得很吃力。"]},{"code":405,"indent":1,"parameters":["但我所接受的神学教育使我并不对自己的命运有所怨言；"]},{"code":405,"indent":1,"parameters":["那时我觉得，我的一切遭遇都是天父对我的考验，就像"]},{"code":405,"indent":1,"parameters":["他命令亚伯兰献祭以撒一样。"]},{"code":405,"indent":1,"parameters":[""]},{"code":405,"indent":1,"parameters":["    阿七比我大一岁，我们对文学和艺术有着颇为"]},{"code":405,"indent":1,"parameters":["相似的见解，又共享着一种少年早熟的秉性，因而很"]},{"code":405,"indent":1,"parameters":["合得来。在烟酒店的工作不忙时，我会去他家的地下室，"]},{"code":405,"indent":1,"parameters":["和他一起看旧录影带、听唱片。我叔父是个怪阴沉的人，"]},{"code":405,"indent":1,"parameters":["又总是将自己关在房里，我和他并无什么话讲……因此，"]},{"code":405,"indent":1,"parameters":["阿七是我唯一的朋友。"]},{"code":405,"indent":1,"parameters":[""]},{"code":405,"indent":1,"parameters":["    这样的日子过了两年左右，对我来说已经"]},{"code":405,"indent":1,"parameters":["很顺遂。我当时坚定地相信，自己将来会像父亲一样"]},{"code":405,"indent":1,"parameters":["做一名默默无闻的新教牧师。我无法预料不久之后就将"]},{"code":405,"indent":1,"parameters":["降临在我身上的事——那足以扭转我的人生轨迹，并使自己"]},{"code":405,"indent":1,"parameters":["自出生以来所培育的信仰就此倾颓。"]},{"code":405,"indent":1,"parameters":[""]},{"code":405,"indent":1,"parameters":["    那是我十三岁时的某一天，我从学校回来，"]},{"code":405,"indent":1,"parameters":["发现店里一片狼藉，似乎是被人抄过家一样：酒架上的"]},{"code":405,"indent":1,"parameters":["几种名贵洋酒都不见了，收银柜里的现金被一扫而空，"]},{"code":405,"indent":1,"parameters":["我叔父也不在。我吓呆了，正要出去寻找，却见几个陌生"]},{"code":405,"indent":1,"parameters":["男人从里屋走出来。他们都配着枪，为首的是一个穿"]},{"code":405,"indent":1,"parameters":["西服的高大男人，看起来不过三十岁出头的样子。"]},{"code":405,"indent":1,"parameters":[""]},{"code":405,"indent":1,"parameters":["    那男人对我笑了笑，嘴里说出我叔父的名字来。"]},{"code":405,"indent":1,"parameters":["他说我叔父涉嫌使用和贩卖违禁药品，已经被他们拘留"]},{"code":405,"indent":1,"parameters":["了……他们正在店里搜集“证据”。我想了想，好像的确"]},{"code":405,"indent":1,"parameters":["见过叔父的手臂上有青紫的针眼痕迹。于是我问他们，"]},{"code":405,"indent":1,"parameters":["我能不能去看看叔父，并叫他们把搜查令给我看，可"]},{"code":405,"indent":1,"parameters":["他们只是大声嘲笑我，什么也不拿出来，还拔腿就要走。"]},{"code":405,"indent":1,"parameters":["我很恼怒，又想到店里财物消失的事，就揪住那为首"]},{"code":405,"indent":1,"parameters":["男人的衣袖，要他把钱和酒还给我。他转过身来，给了我"]},{"code":405,"indent":1,"parameters":["一记勾拳……我的头撞到地面，昏死过去。"]},{"code":405,"indent":1,"parameters":[""]},{"code":405,"indent":1,"parameters":["    醒来时我发现自己仰面躺在我卧室的床上，"]},{"code":405,"indent":1,"parameters":["两手在背后被凉凉的、手铐似的东西拷住了。那男人……"]},{"code":405,"indent":1,"parameters":["他正压在我身上，用一种近似疯人的偏执的眼神盯着我。"]},{"code":405,"indent":1,"parameters":["我下意识地想尖叫，却被他用一块手绢塞住嘴巴，"]},{"code":405,"indent":1,"parameters":["发不出声音。我拼了命地挣扎，想躲开他伸向我身体的"]},{"code":405,"indent":1,"parameters":["两手，和贴近我面颊的嘴唇。"]},{"code":405,"indent":1,"parameters":[""]},{"code":405,"indent":1,"parameters":["    可我躲不开他。不管我怎样想挣脱，我都"]},{"code":405,"indent":1,"parameters":["躲不开他。"]},{"code":405,"indent":1,"parameters":[""]},{"code":405,"indent":1,"parameters":["    “罪犯没有权利……罪犯没有权利。” "]},{"code":405,"indent":1,"parameters":[""]},{"code":405,"indent":1,"parameters":["    在那个时候，那个男人在我耳边不断重复着"]},{"code":405,"indent":1,"parameters":["这句话。"]},{"code":405,"indent":1,"parameters":[""]},{"code":405,"indent":1,"parameters":["    那之后我大病了一场，在痊愈的那一刻仿佛"]},{"code":405,"indent":1,"parameters":["获得新生。我舍弃了从前的一切信念和规划：我谨遵"]},{"code":405,"indent":1,"parameters":["神的教诲生活，可得到的只有愈加深重的苦难，这样的神"]},{"code":405,"indent":1,"parameters":["有何值得我供奉的价值？我父亲的遗愿……呵，他怎么"]},{"code":405,"indent":1,"parameters":["可能知道我经历了什么？从这一刻起，我所赖以生存的"]},{"code":405,"indent":1,"parameters":["唯一理想和使命，就只有复仇而已。"]},{"code":405,"indent":1,"parameters":[""]},{"code":405,"indent":1,"parameters":["    我从报纸上看见那人的人事调动信息，也"]},{"code":405,"indent":1,"parameters":["知道了他的名字。我知道他是从关南大学法学院毕业，"]},{"code":405,"indent":1,"parameters":["今后要被调去关南市的警局工作。这为我的复仇计划"]},{"code":405,"indent":1,"parameters":["赋予了灵感：我拼尽全力也要离开珠州，到关南市"]},{"code":405,"indent":1,"parameters":["去扎根……以我的头脑和手段，我将接近他，拉拢他，"]},{"code":405,"indent":1,"parameters":["服侍他——最终，毁掉他。"]},{"code":405,"indent":1,"parameters":[""]},{"code":405,"indent":1,"parameters":["    我开始日以继夜地用功读书。我想靠实践"]},{"code":405,"indent":1,"parameters":["这计划时的疲惫来帮助我忘记那场横祸，可事实证明"]},{"code":405,"indent":1,"parameters":["这并不奏效。我的食欲减退，变得沉默寡言且神经质，"]},{"code":405,"indent":1,"parameters":["对周围的所有人怀有疑心和敌意，夜里常常从噩梦中"]},{"code":405,"indent":1,"parameters":["惊醒。更让我痛苦的是，阿七对我所有的变化看在眼里，"]},{"code":405,"indent":1,"parameters":["却从未开口问过我一句——我究竟怎么了。"]},{"code":405,"indent":1,"parameters":[""]},{"code":405,"indent":1,"parameters":["    叔父入狱后我接手了烟酒店。高中毕业后"]},{"code":405,"indent":1,"parameters":["我卖掉店铺，抽出所得的一部来作为我求学的盘缠。"]},{"code":405,"indent":1,"parameters":["我考进了关南大学法学院，如愿离开了珠州。在关南市，"]},{"code":405,"indent":1,"parameters":["没有人认识我，我大可以隐藏起自己的天性，伪装成"]},{"code":405,"indent":1,"parameters":["一位巧舌如簧的辩士。我想成为一名警官，或者至少是"]},{"code":405,"indent":1,"parameters":["律师，这样才能接近那个人——据说他已经成了一位高层"]},{"code":405,"indent":1,"parameters":["人物。我把自己包装成一颗初露锋芒的璞玉，翘首以待"]},{"code":405,"indent":1,"parameters":["他将我从黑暗中发掘。"]},{"code":405,"indent":1,"parameters":[""]},{"code":405,"indent":1,"parameters":["    孤星盟的那次火并事件后，我真正走入了"]},{"code":405,"indent":1,"parameters":["那个人的视野中。如我所预期的那样，他赏识我、亲近我，"]},{"code":405,"indent":1,"parameters":["使我得以一窥他的野心。同年在关南大学发生了女研究生"]},{"code":405,"indent":1,"parameters":["失踪案，他对案件中的那台模型机表现出很大的兴趣。"]},{"code":405,"indent":1,"parameters":["在他眼里，那是足以成为一枚政治砝码的伟大发明。"]},{"code":405,"indent":1,"parameters":["出于那个人的愿望，我将当事人顾雅人从看守所中营救"]},{"code":405,"indent":1,"parameters":["出来，又想办法给他创造了继续模型机改造的条件。"]},{"code":405,"indent":1,"parameters":["待到时机成熟，我会将这机器进献给那个人以求他的"]},{"code":405,"indent":1,"parameters":["欢心，就像该隐进献自己的作物那样。"]},{"code":405,"indent":1,"parameters":[""]},{"code":405,"indent":1,"parameters":["    一切都按照计划丝丝入扣地进行着，直到"]},{"code":405,"indent":1,"parameters":["郭婉君发现了那个案件的秘密……我这才发现，我所赖以"]},{"code":405,"indent":1,"parameters":["获得成功的一切都危如累卵，到了前功尽弃的边缘。"]},{"code":405,"indent":1,"parameters":["时间机器是我成为那个人头号亲信的百年一遇的良机，"]},{"code":405,"indent":1,"parameters":["我绝不能放任它从手上溜走……于是我亲手结果了那个"]},{"code":405,"indent":1,"parameters":["女人。从此，我再也没有退路。"]},{"code":405,"indent":1,"parameters":[""]},{"code":405,"indent":1,"parameters":["    我曾以为我的第一个牺牲者会是那个人……"]},{"code":405,"indent":1,"parameters":["而不是这无辜的女人。可我没办法。“没办法”……这的确"]},{"code":405,"indent":1,"parameters":["是个足够厚颜无耻的借口。哦，对了，还有阿七。我现在"]},{"code":405,"indent":1,"parameters":["和他成了一丘之貉——说老实话，我在孤星盟见到他时，"]},{"code":405,"indent":1,"parameters":["真的吃了一惊。曾经那么亲切、从没有坏心眼的童年玩伴"]},{"code":405,"indent":1,"parameters":["成了个真正的打手、罪犯——这世上还有什么不可能的？"]},{"code":405,"indent":1,"parameters":["他不被我杀死，也总有一天会死在别人手上……"]},{"code":405,"indent":1,"parameters":["我没有办法。"]},{"code":405,"indent":1,"parameters":[""]},{"code":405,"indent":1,"parameters":["    现在，我手上有了机器，只要交给那个人，"]},{"code":405,"indent":1,"parameters":["我就将换得在检察院的一席之地。到那时我便有了"]},{"code":405,"indent":1,"parameters":["调查他的资源和手段……就算我自己化身为魔鬼，"]},{"code":405,"indent":1,"parameters":["我也要先把他拖进地狱的烈火。我终将如愿以偿。"]},{"code":405,"indent":1,"parameters":[""]},{"code":405,"indent":1,"parameters":["    只有一件事让我不太满意。顾雅人本不该"]},{"code":405,"indent":1,"parameters":["知道这一切。他本该乖乖地将机器交给我，然后平静地"]},{"code":405,"indent":1,"parameters":["继续他那庸常的人生。可他为了向郭婉君尽那一点"]},{"code":405,"indent":1,"parameters":["可笑的义气，最终使自己落得一个这样悲惨的下场，"]},{"code":405,"indent":1,"parameters":["我也阻拦不了他。我从头到尾都无法理解这个人——"]},{"code":405,"indent":1,"parameters":["他行为的动机是什么？郭婉君根本不在乎他的死活，"]},{"code":405,"indent":1,"parameters":["不如说，郭婉君还希望他早死。"]},{"code":405,"indent":1,"parameters":[""]},{"code":405,"indent":1,"parameters":[""]},{"code":405,"indent":1,"parameters":[""]},{"code":405,"indent":1,"parameters":["    不管这些了。审判日即将到来……天国之门"]},{"code":405,"indent":1,"parameters":["不会等待犹疑不决的人。"]},{"code":242,"indent":1,"parameters":[10]},{"code":122,"indent":1,"parameters":[1,1,0,0,115]},{"code":223,"indent":1,"parameters":[[-255,-255,-255,0],120,true]},{"code":221,"indent":1,"parameters":[]},{"code":230,"indent":1,"parameters":[240]},{"code":235,"indent":1,"parameters":[1]},{"code":129,"indent":1,"parameters":[2,0,false]},{"code":129,"indent":1,"parameters":[3,1,false]},{"code":201,"indent":1,"parameters":[0,67,11,6,8,0]},{"code":0,"indent":1,"parameters":[]},{"code":412,"indent":0,"parameters":[]},{"code":111,"indent":0,"parameters":[1,1,0,111,0]},{"code":223,"indent":1,"parameters":[[68,-34,-34,0],1,true]},{"code":205,"indent":1,"parameters":[-1,{"list":[{"code":40,"indent":null},{"code":29,"parameters":[3],"indent":null},{"code":45,"parameters":["Move To: 2, 0"],"indent":null},{"code":0}],"repeat":false,"skippable":true,"wait":true}]},{"code":505,"indent":1,"parameters":[{"code":40,"indent":null}]},{"code":505,"indent":1,"parameters":[{"code":29,"parameters":[3],"indent":null}]},{"code":505,"indent":1,"parameters":[{"code":45,"parameters":["Move To: 2, 0"],"indent":null}]},{"code":201,"indent":1,"parameters":[0,15,13,25,8,0]},{"code":0,"indent":1,"parameters":[]},{"code":412,"indent":0,"parameters":[]},{"code":111,"indent":0,"parameters":[1,1,0,102,0]},{"code":205,"indent":1,"parameters":[-1,{"list":[{"code":37,"indent":null},{"code":29,"parameters":[5],"indent":null},{"code":1,"indent":null},{"code":1,"indent":null},{"code":1,"indent":null},{"code":29,"parameters":[4],"indent":null},{"code":1,"indent":null},{"code":1,"indent":null},{"code":1,"indent":null},{"code":1,"indent":null},{"code":0}],"repeat":false,"skippable":true,"wait":false}]},{"code":505,"indent":1,"parameters":[{"code":37,"indent":null}]},{"code":505,"indent":1,"parameters":[{"code":29,"parameters":[5],"indent":null}]},{"code":505,"indent":1,"parameters":[{"code":1,"indent":null}]},{"code":505,"indent":1,"parameters":[{"code":1,"indent":null}]},{"code":505,"indent":1,"parameters":[{"code":1,"indent":null}]},{"code":505,"indent":1,"parameters":[{"code":29,"parameters":[4],"indent":null}]},{"code":505,"indent":1,"parameters":[{"code":1,"indent":null}]},{"code":505,"indent":1,"parameters":[{"code":1,"indent":null}]},{"code":505,"indent":1,"parameters":[{"code":1,"indent":null}]},{"code":505,"indent":1,"parameters":[{"code":1,"indent":null}]},{"code":250,"indent":1,"parameters":[{"name":"Move5","volume":30,"pitch":150,"pan":40}]},{"code":230,"indent":1,"parameters":[60]},{"code":250,"indent":1,"parameters":[{"name":"Move5","volume":15,"pitch":150,"pan":-60}]},{"code":101,"indent":1,"parameters":["masato",10,0,2]},{"code":401,"indent":1,"parameters":["雅人："]},{"code":401,"indent":1,"parameters":["哈……\\.哈……"]},{"code":101,"indent":1,"parameters":["masato",5,0,2]},{"code":401,"indent":1,"parameters":["雅人："]},{"code":401,"indent":1,"parameters":["尾巴……甩掉了。"]},{"code":224,"indent":1,"parameters":[[255,255,255,170],90,true]},{"code":230,"indent":1,"parameters":[60]},{"code":101,"indent":1,"parameters":["",0,0,2]},{"code":401,"indent":1,"parameters":["可恶…得赶快报警……！！！"]},{"code":101,"indent":1,"parameters":["",0,0,2]},{"code":401,"indent":1,"parameters":["这个笔记本电脑也得送到公安局去……"]},{"code":101,"indent":1,"parameters":["",0,0,2]},{"code":401,"indent":1,"parameters":["子渊他恐怕……凶多吉少……"]},{"code":250,"indent":1,"parameters":[{"name":"Thunder9","volume":100,"pitch":100,"pan":0}]},{"code":230,"indent":1,"parameters":[30]},{"code":250,"indent":1,"parameters":[{"name":"Thunder9","volume":100,"pitch":50,"pan":-100}]},{"code":250,"indent":1,"parameters":[{"name":"Thunder9","volume":100,"pitch":150,"pan":100}]},{"code":230,"indent":1,"parameters":[60]},{"code":205,"indent":1,"parameters":[-1,{"list":[{"code":38,"indent":null},{"code":29,"parameters":[4],"indent":null},{"code":1,"indent":null},{"code":1,"indent":null},{"code":1,"indent":null},{"code":1,"indent":null},{"code":1,"indent":null},{"code":1,"indent":null},{"code":1,"indent":null},{"code":0}],"repeat":false,"skippable":true,"wait":false}]},{"code":505,"indent":1,"parameters":[{"code":38,"indent":null}]},{"code":505,"indent":1,"parameters":[{"code":29,"parameters":[4],"indent":null}]},{"code":505,"indent":1,"parameters":[{"code":1,"indent":null}]},{"code":505,"indent":1,"parameters":[{"code":1,"indent":null}]},{"code":505,"indent":1,"parameters":[{"code":1,"indent":null}]},{"code":505,"indent":1,"parameters":[{"code":1,"indent":null}]},{"code":505,"indent":1,"parameters":[{"code":1,"indent":null}]},{"code":505,"indent":1,"parameters":[{"code":1,"indent":null}]},{"code":505,"indent":1,"parameters":[{"code":1,"indent":null}]},{"code":223,"indent":1,"parameters":[[-255,-255,-255,0],240,true]},{"code":201,"indent":1,"parameters":[0,17,8,10,2,0]},{"code":0,"indent":1,"parameters":[]},{"code":412,"indent":0,"parameters":[]},{"code":111,"indent":0,"parameters":[1,1,0,45,0]},{"code":121,"indent":1,"parameters":[104,104,1]},{"code":121,"indent":1,"parameters":[189,189,0]},{"code":205,"indent":1,"parameters":[-1,{"list":[{"code":40,"indent":null},{"code":0}],"repeat":false,"skippable":false,"wait":true}]},{"code":505,"indent":1,"parameters":[{"code":40,"indent":null}]},{"code":223,"indent":1,"parameters":[[-68,-68,0,68],100,false]},{"code":205,"indent":1,"parameters":[-1,{"list":[{"code":29,"parameters":[3],"indent":null},{"code":4,"indent":null},{"code":4,"indent":null},{"code":4,"indent":null},{"code":4,"indent":null},{"code":4,"indent":null},{"code":0}],"repeat":false,"skippable":false,"wait":true}]},{"code":505,"indent":1,"parameters":[{"code":29,"parameters":[3],"indent":null}]},{"code":505,"indent":1,"parameters":[{"code":4,"indent":null}]},{"code":505,"indent":1,"parameters":[{"code":4,"indent":null}]},{"code":505,"indent":1,"parameters":[{"code":4,"indent":null}]},{"code":505,"indent":1,"parameters":[{"code":4,"indent":null}]},{"code":505,"indent":1,"parameters":[{"code":4,"indent":null}]},{"code":355,"indent":1,"parameters":["set_text_sound_name(\"talking\")"]},{"code":101,"indent":1,"parameters":["masato",8,0,2]},{"code":401,"indent":1,"parameters":["雅人："]},{"code":401,"indent":1,"parameters":["…\\.…\\.！"]},{"code":204,"indent":1,"parameters":[8,3,4]},{"code":230,"indent":1,"parameters":[60]},{"code":101,"indent":1,"parameters":["masato",8,0,2]},{"code":401,"indent":1,"parameters":["雅人："]},{"code":401,"indent":1,"parameters":["……林警官？"]},{"code":101,"indent":1,"parameters":["h-p-perdita",15,0,2]},{"code":401,"indent":1,"parameters":["初："]},{"code":401,"indent":1,"parameters":["晚上好，顾先生。"]},{"code":101,"indent":1,"parameters":["masato",8,0,2]},{"code":401,"indent":1,"parameters":["雅人："]},{"code":401,"indent":1,"parameters":["你不是……你不是走了吗？"]},{"code":101,"indent":1,"parameters":["h-p-perdita",15,0,2]},{"code":401,"indent":1,"parameters":["初："]},{"code":401,"indent":1,"parameters":["我知道我会等到你，所以就还是决定回来。"]},{"code":101,"indent":1,"parameters":["h-p-perdita",0,0,2]},{"code":401,"indent":1,"parameters":["初："]},{"code":401,"indent":1,"parameters":["没想到……你自己先跑来了。"]},{"code":101,"indent":1,"parameters":["masato",2,0,2]},{"code":401,"indent":1,"parameters":["雅人："]},{"code":401,"indent":1,"parameters":["……"]},{"code":101,"indent":1,"parameters":["masato",1,0,2]},{"code":401,"indent":1,"parameters":["雅人："]},{"code":401,"indent":1,"parameters":["你给我那张照片，是想告诉我，别放弃调查吧？"]},{"code":101,"indent":1,"parameters":["h-p-perdita",6,0,2]},{"code":401,"indent":1,"parameters":["初："]},{"code":401,"indent":1,"parameters":["看来你找回自己的回忆了？"]},{"code":101,"indent":1,"parameters":["masato",12,0,2]},{"code":401,"indent":1,"parameters":["雅人："]},{"code":401,"indent":1,"parameters":["……嗯，是啊。"]},{"code":101,"indent":1,"parameters":["h-p-perdita",15,0,2]},{"code":401,"indent":1,"parameters":["初："]},{"code":101,"indent":1,"parameters":["h-p-perdita",0,0,2]},{"code":401,"indent":1,"parameters":["初："]},{"code":401,"indent":1,"parameters":["我果然没看错你。"]},{"code":101,"indent":1,"parameters":["masato",2,0,2]},{"code":401,"indent":1,"parameters":["雅人："]},{"code":401,"indent":1,"parameters":["……先送你回去吧？这么晚了。"]},{"code":101,"indent":1,"parameters":["h-p-perdita",4,0,2]},{"code":401,"indent":1,"parameters":["初："]},{"code":401,"indent":1,"parameters":["哎，不回你家商量商量作战计划吗？"]},{"code":101,"indent":1,"parameters":["h-p-perdita",0,0,2]},{"code":401,"indent":1,"parameters":["初："]},{"code":401,"indent":1,"parameters":["还没抓到坏人，咱们怎么能轻易松懈呢。"]},{"code":101,"indent":1,"parameters":["masato",14,0,2]},{"code":401,"indent":1,"parameters":["雅人："]},{"code":401,"indent":1,"parameters":["你不睡觉了？"]},{"code":101,"indent":1,"parameters":["h-p-perdita",8,0,2]},{"code":401,"indent":1,"parameters":["初："]},{"code":401,"indent":1,"parameters":["那你睡得着吗？况且我有这个。\\!"]},{"code":401,"indent":1,"parameters":["不介意吧？"]},{"code":101,"indent":1,"parameters":["masato",3,0,2]},{"code":401,"indent":1,"parameters":["雅人："]},{"code":401,"indent":1,"parameters":["你一个女孩子，总抽什么烟啊……"]},{"code":101,"indent":1,"parameters":["h-p-perdita",8,0,2]},{"code":401,"indent":1,"parameters":["初："]},{"code":401,"indent":1,"parameters":["我……这么说吧。"]},{"code":101,"indent":1,"parameters":["h-p-perdita",5,0,2]},{"code":401,"indent":1,"parameters":["初："]},{"code":401,"indent":1,"parameters":["你有没有听过一种说法，"]},{"code":401,"indent":1,"parameters":["人类是可以分辨，亲密的人身上的味道的。"]},{"code":101,"indent":1,"parameters":["masato",0,0,2]},{"code":401,"indent":1,"parameters":["雅人："]},{"code":401,"indent":1,"parameters":["嗯。我知道。"]},{"code":101,"indent":1,"parameters":["masato",15,0,2]},{"code":401,"indent":1,"parameters":["雅人："]},{"code":401,"indent":1,"parameters":["比如玉兰花的香味，薄荷味……"]},{"code":101,"indent":1,"parameters":["h-p-perdita",10,0,2]},{"code":401,"indent":1,"parameters":["初："]},{"code":401,"indent":1,"parameters":["你这么清汤寡水的人，还真是说出了些"]},{"code":401,"indent":1,"parameters":["够花哨的味道啊……"]},{"code":101,"indent":1,"parameters":["masato",3,0,2]},{"code":401,"indent":1,"parameters":["雅人："]},{"code":401,"indent":1,"parameters":["啊。"]},{"code":101,"indent":1,"parameters":["h-p-perdita",7,0,2]},{"code":401,"indent":1,"parameters":["初："]},{"code":401,"indent":1,"parameters":["反正……这烟，也是我的回忆，\\."]},{"code":401,"indent":1,"parameters":["非常、\\.非常重要的回忆。"]},{"code":101,"indent":1,"parameters":["h-p-perdita",2,0,2]},{"code":401,"indent":1,"parameters":["初："]},{"code":401,"indent":1,"parameters":["它的味道很像某一个人。"]},{"code":101,"indent":1,"parameters":["h-p-perdita",20,0,2]},{"code":401,"indent":1,"parameters":["初："]},{"code":401,"indent":1,"parameters":["点燃它的时候……总能让我觉得，"]},{"code":401,"indent":1,"parameters":["那个人还在我身边很近很近的地方。"]},{"code":101,"indent":1,"parameters":["h-p-perdita",0,0,2]},{"code":401,"indent":1,"parameters":["初："]},{"code":401,"indent":1,"parameters":["……哈哈哈。"]},{"code":101,"indent":1,"parameters":["h-p-perdita",15,0,2]},{"code":401,"indent":1,"parameters":["初："]},{"code":401,"indent":1,"parameters":["很傻吧，对不对？"]},{"code":101,"indent":1,"parameters":["masato",7,0,2]},{"code":401,"indent":1,"parameters":["雅人："]},{"code":401,"indent":1,"parameters":["……"]},{"code":101,"indent":1,"parameters":["masato",2,0,2]},{"code":401,"indent":1,"parameters":["雅人："]},{"code":401,"indent":1,"parameters":["不，不会。"]},{"code":205,"indent":1,"parameters":[13,{"list":[{"code":1,"indent":null},{"code":1,"indent":null},{"code":1,"indent":null},{"code":1,"indent":null},{"code":1,"indent":null},{"code":1,"indent":null},{"code":0}],"repeat":false,"skippable":false,"wait":false}]},{"code":505,"indent":1,"parameters":[{"code":1,"indent":null}]},{"code":505,"indent":1,"parameters":[{"code":1,"indent":null}]},{"code":505,"indent":1,"parameters":[{"code":1,"indent":null}]},{"code":505,"indent":1,"parameters":[{"code":1,"indent":null}]},{"code":505,"indent":1,"parameters":[{"code":1,"indent":null}]},{"code":505,"indent":1,"parameters":[{"code":1,"indent":null}]},{"code":242,"indent":1,"parameters":[5]},{"code":122,"indent":1,"parameters":[1,1,0,0,46]},{"code":230,"indent":1,"parameters":[60]},{"code":221,"indent":1,"parameters":[]},{"code":230,"indent":1,"parameters":[240]},{"code":201,"indent":1,"parameters":[0,9,33,7,4,0]},{"code":0,"indent":1,"parameters":[]},{"code":412,"indent":0,"parameters":[]},{"code":111,"indent":0,"parameters":[0,84,0]},{"code":223,"indent":1,"parameters":[[-68,-68,0,68],1,false]},{"code":0,"indent":1,"parameters":[]},{"code":412,"indent":0,"parameters":[]},{"code":111,"indent":0,"parameters":[1,1,0,22,0]},{"code":205,"indent":1,"parameters":[3,{"list":[{"code":4,"indent":null},{"code":4,"indent":null},{"code":29,"parameters":[5],"indent":0},{"code":4,"indent":null},{"code":4,"indent":null},{"code":4,"indent":null},{"code":4,"indent":null},{"code":4,"indent":null},{"code":4,"indent":null},{"code":4,"indent":null},{"code":4,"indent":null},{"code":4,"indent":null},{"code":4,"indent":null},{"code":4,"indent":null},{"code":4,"indent":null},{"code":4,"indent":null},{"code":4,"indent":null},{"code":4,"indent":null},{"code":4,"indent":null},{"code":4,"indent":null},{"code":4,"indent":null},{"code":4,"indent":null},{"code":4,"indent":null},{"code":39,"indent":null},{"code":37,"indent":null},{"code":14,"parameters":[10,0],"indent":null},{"code":0}],"repeat":false,"skippable":true,"wait":false}]},{"code":505,"indent":1,"parameters":[{"code":4,"indent":null}]},{"code":505,"indent":1,"parameters":[{"code":4,"indent":null}]},{"code":505,"indent":1,"parameters":[{"code":29,"parameters":[5],"indent":0}]},{"code":505,"indent":1,"parameters":[{"code":4,"indent":null}]},{"code":505,"indent":1,"parameters":[{"code":4,"indent":null}]},{"code":505,"indent":1,"parameters":[{"code":4,"indent":null}]},{"code":505,"indent":1,"parameters":[{"code":4,"indent":null}]},{"code":505,"indent":1,"parameters":[{"code":4,"indent":null}]},{"code":505,"indent":1,"parameters":[{"code":4,"indent":null}]},{"code":505,"indent":1,"parameters":[{"code":4,"indent":null}]},{"code":505,"indent":1,"parameters":[{"code":4,"indent":null}]},{"code":505,"indent":1,"parameters":[{"code":4,"indent":null}]},{"code":505,"indent":1,"parameters":[{"code":4,"indent":null}]},{"code":505,"indent":1,"parameters":[{"code":4,"indent":null}]},{"code":505,"indent":1,"parameters":[{"code":4,"indent":null}]},{"code":505,"indent":1,"parameters":[{"code":4,"indent":null}]},{"code":505,"indent":1,"parameters":[{"code":4,"indent":null}]},{"code":505,"indent":1,"parameters":[{"code":4,"indent":null}]},{"code":505,"indent":1,"parameters":[{"code":4,"indent":null}]},{"code":505,"indent":1,"parameters":[{"code":4,"indent":null}]},{"code":505,"indent":1,"parameters":[{"code":4,"indent":null}]},{"code":505,"indent":1,"parameters":[{"code":4,"indent":null}]},{"code":505,"indent":1,"parameters":[{"code":4,"indent":null}]},{"code":505,"indent":1,"parameters":[{"code":39,"indent":null}]},{"code":505,"indent":1,"parameters":[{"code":37,"indent":null}]},{"code":505,"indent":1,"parameters":[{"code":14,"parameters":[10,0],"indent":null}]},{"code":122,"indent":1,"parameters":[1,1,0,0,23]},{"code":0,"indent":1,"parameters":[]},{"code":411,"indent":0,"parameters":[]},{"code":111,"indent":1,"parameters":[0,104,0]},{"code":205,"indent":2,"parameters":[3,{"list":[{"code":39,"indent":null},{"code":37,"indent":null},{"code":14,"parameters":[10,0],"indent":null},{"code":0}],"repeat":false,"skippable":false,"wait":false}]},{"code":505,"indent":2,"parameters":[{"code":39,"indent":null}]},{"code":505,"indent":2,"parameters":[{"code":37,"indent":null}]},{"code":505,"indent":2,"parameters":[{"code":14,"parameters":[10,0],"indent":null}]},{"code":0,"indent":2,"parameters":[]},{"code":412,"indent":1,"parameters":[]},{"code":0,"indent":1,"parameters":[]},{"code":412,"indent":0,"parameters":[]},{"code":214,"indent":0,"parameters":[]},{"code":0,"indent":0,"parameters":[]}],"moveFrequency":3,"moveRoute":{"list":[{"code":0,"parameters":[]}],"repeat":true,"skippable":false,"wait":false},"moveSpeed":3,"moveType":0,"priorityType":0,"stepAnime":false,"through":false,"trigger":3,"walkAnime":true}],"x":16,"y":0},
{"id":5,"name":"EV005","note":"","pages":[{"conditions":{"actorId":1,"actorValid":false,"itemId":1,"itemValid":false,"selfSwitchCh":"A","selfSwitchValid":false,"switch1Id":1,"switch1Valid":false,"switch2Id":1,"switch2Valid":false,"variableId":1,"variableValid":false,"variableValue":0},"directionFix":false,"image":{"characterIndex":0,"characterName":"","direction":2,"pattern":0,"tileId":0},"list":[{"code":111,"indent":0,"parameters":[0,309,1]},{"code":111,"indent":1,"parameters":[6,-1,2]},{"code":201,"indent":2,"parameters":[0,11,2,0,2,0]},{"code":0,"indent":2,"parameters":[]},{"code":412,"indent":1,"parameters":[]},{"code":0,"indent":1,"parameters":[]},{"code":412,"indent":0,"parameters":[]},{"code":0,"indent":0,"parameters":[]}],"moveFrequency":3,"moveRoute":{"list":[{"code":0,"parameters":[]}],"repeat":true,"skippable":false,"wait":false},"moveSpeed":3,"moveType":0,"priorityType":0,"stepAnime":false,"through":true,"trigger":1,"walkAnime":true}],"x":2,"y":25},
{"id":6,"name":"EV006","note":"","pages":[{"conditions":{"actorId":1,"actorValid":false,"itemId":1,"itemValid":false,"selfSwitchCh":"A","selfSwitchValid":false,"switch1Id":1,"switch1Valid":false,"switch2Id":1,"switch2Valid":false,"variableId":1,"variableValid":false,"variableValue":0},"directionFix":false,"image":{"characterIndex":0,"characterName":"","direction":2,"pattern":0,"tileId":0},"list":[{"code":111,"indent":0,"parameters":[0,309,1]},{"code":111,"indent":1,"parameters":[6,-1,8]},{"code":201,"indent":2,"parameters":[0,13,2,31,8,0]},{"code":0,"indent":2,"parameters":[]},{"code":412,"indent":1,"parameters":[]},{"code":0,"indent":1,"parameters":[]},{"code":412,"indent":0,"parameters":[]},{"code":0,"indent":0,"parameters":[]}],"moveFrequency":3,"moveRoute":{"list":[{"code":0,"parameters":[]}],"repeat":true,"skippable":false,"wait":false},"moveSpeed":3,"moveType":0,"priorityType":0,"stepAnime":false,"through":true,"trigger":1,"walkAnime":true}],"x":2,"y":0},
{"id":7,"name":"EV007","note":"","pages":[{"conditions":{"actorId":1,"actorValid":false,"itemId":1,"itemValid":false,"selfSwitchCh":"A","selfSwitchValid":false,"switch1Id":82,"switch1Valid":false,"switch2Id":1,"switch2Valid":false,"variableId":1,"variableValid":false,"variableValue":0},"directionFix":false,"image":{"characterIndex":0,"characterName":"","direction":2,"pattern":0,"tileId":0},"list":[{"code":108,"indent":0,"parameters":["LIGHT 1 [255,255,-155,100] true B"]},{"code":0,"indent":0,"parameters":[]}],"moveFrequency":3,"moveRoute":{"list":[{"code":0,"parameters":[]}],"repeat":true,"skippable":false,"wait":false},"moveSpeed":3,"moveType":0,"priorityType":0,"stepAnime":false,"through":true,"trigger":4,"walkAnime":true}],"x":1,"y":0},
{"id":8,"name":"EV008","note":"","pages":[{"conditions":{"actorId":1,"actorValid":false,"itemId":1,"itemValid":false,"selfSwitchCh":"A","selfSwitchValid":false,"switch1Id":82,"switch1Valid":false,"switch2Id":1,"switch2Valid":false,"variableId":1,"variableValid":false,"variableValue":0},"directionFix":false,"image":{"characterIndex":0,"characterName":"","direction":2,"pattern":0,"tileId":0},"list":[{"code":108,"indent":0,"parameters":["LIGHT 1 [255,255,-155,100] true B"]},{"code":0,"indent":0,"parameters":[]}],"moveFrequency":3,"moveRoute":{"list":[{"code":0,"parameters":[]}],"repeat":true,"skippable":false,"wait":false},"moveSpeed":3,"moveType":0,"priorityType":0,"stepAnime":false,"through":false,"trigger":4,"walkAnime":true}],"x":1,"y":24},
{"id":9,"name":"EV009","note":"","pages":[{"conditions":{"actorId":1,"actorValid":false,"itemId":1,"itemValid":false,"selfSwitchCh":"A","selfSwitchValid":false,"switch1Id":82,"switch1Valid":false,"switch2Id":1,"switch2Valid":false,"variableId":1,"variableValid":false,"variableValue":0},"directionFix":false,"image":{"characterIndex":0,"characterName":"","direction":2,"pattern":0,"tileId":0},"list":[{"code":108,"indent":0,"parameters":["LIGHT 1 [255,255,-155,100] true B"]},{"code":0,"indent":0,"parameters":[]}],"moveFrequency":3,"moveRoute":{"list":[{"code":0,"parameters":[]}],"repeat":true,"skippable":false,"wait":false},"moveSpeed":3,"moveType":0,"priorityType":0,"stepAnime":false,"through":false,"trigger":4,"walkAnime":true}],"x":1,"y":14},
{"id":10,"name":"EV010","note":"","pages":[{"conditions":{"actorId":1,"actorValid":false,"itemId":1,"itemValid":false,"selfSwitchCh":"A","selfSwitchValid":false,"switch1Id":82,"switch1Valid":false,"switch2Id":1,"switch2Valid":false,"variableId":1,"variableValid":false,"variableValue":0},"directionFix":false,"image":{"characterIndex":0,"characterName":"","direction":2,"pattern":0,"tileId":0},"list":[{"code":108,"indent":0,"parameters":["LIGHT 1 [255,255,-155,100] true B"]},{"code":0,"indent":0,"parameters":[]}],"moveFrequency":3,"moveRoute":{"list":[{"code":0,"parameters":[]}],"repeat":true,"skippable":false,"wait":false},"moveSpeed":3,"moveType":0,"priorityType":0,"stepAnime":false,"through":false,"trigger":4,"walkAnime":true}],"x":1,"y":8},
{"id":11,"name":"EV011","note":"","pages":[{"conditions":{"actorId":1,"actorValid":false,"itemId":1,"itemValid":false,"selfSwitchCh":"A","selfSwitchValid":false,"switch1Id":82,"switch1Valid":false,"switch2Id":1,"switch2Valid":false,"variableId":1,"variableValid":false,"variableValue":0},"directionFix":false,"image":{"characterIndex":0,"characterName":"","direction":2,"pattern":0,"tileId":0},"list":[{"code":108,"indent":0,"parameters":["LIGHT 1 [255,255,-155,100] true B"]},{"code":0,"indent":0,"parameters":[]}],"moveFrequency":3,"moveRoute":{"list":[{"code":0,"parameters":[]}],"repeat":true,"skippable":false,"wait":false},"moveSpeed":3,"moveType":0,"priorityType":0,"stepAnime":false,"through":false,"trigger":4,"walkAnime":true}],"x":13,"y":2},
{"id":12,"name":"EV012","note":"","pages":[{"conditions":{"actorId":1,"actorValid":false,"itemId":1,"itemValid":false,"selfSwitchCh":"A","selfSwitchValid":false,"switch1Id":82,"switch1Valid":false,"switch2Id":1,"switch2Valid":false,"variableId":1,"variableValid":false,"variableValue":0},"directionFix":false,"image":{"characterIndex":0,"characterName":"","direction":2,"pattern":0,"tileId":0},"list":[{"code":108,"indent":0,"parameters":["LIGHT 1 [255,255,-155,100] true B"]},{"code":0,"indent":0,"parameters":[]}],"moveFrequency":3,"moveRoute":{"list":[{"code":0,"parameters":[]}],"repeat":true,"skippable":false,"wait":false},"moveSpeed":3,"moveType":0,"priorityType":0,"stepAnime":false,"through":false,"trigger":4,"walkAnime":true}],"x":7,"y":6},
{"id":13,"name":"waiting perdita","note":"","pages":[{"conditions":{"actorId":1,"actorValid":false,"itemId":1,"itemValid":false,"selfSwitchCh":"A","selfSwitchValid":false,"switch1Id":189,"switch1Valid":true,"switch2Id":1,"switch2Valid":false,"variableId":1,"variableValid":false,"variableValue":0},"directionFix":false,"image":{"tileId":0,"characterName":"$perdita-hat","direction":2,"pattern":1,"characterIndex":0},"list":[{"code":0,"indent":0,"parameters":[]}],"moveFrequency":3,"moveRoute":{"list":[{"code":0,"parameters":[]}],"repeat":true,"skippable":false,"wait":false},"moveSpeed":3,"moveType":0,"priorityType":1,"stepAnime":false,"through":false,"trigger":0,"walkAnime":true}],"x":3,"y":10},
{"id":14,"name":"EV014","note":"","pages":[{"conditions":{"actorId":1,"actorValid":false,"itemId":1,"itemValid":false,"selfSwitchCh":"A","selfSwitchValid":false,"switch1Id":1,"switch1Valid":false,"switch2Id":1,"switch2Valid":false,"variableId":1,"variableValid":false,"variableValue":0},"directionFix":false,"image":{"characterIndex":0,"characterName":"","direction":2,"pattern":0,"tileId":0},"list":[{"code":111,"indent":0,"parameters":[0,309,1]},{"code":111,"indent":1,"parameters":[6,-1,2]},{"code":201,"indent":2,"parameters":[0,11,5,0,2,0]},{"code":0,"indent":2,"parameters":[]},{"code":412,"indent":1,"parameters":[]},{"code":0,"indent":1,"parameters":[]},{"code":412,"indent":0,"parameters":[]},{"code":0,"indent":0,"parameters":[]}],"moveFrequency":3,"moveRoute":{"list":[{"code":0,"parameters":[]}],"repeat":true,"skippable":false,"wait":false},"moveSpeed":3,"moveType":0,"priorityType":0,"stepAnime":false,"through":true,"trigger":1,"walkAnime":true}],"x":5,"y":25},
{"id":15,"name":"EV015","note":"","pages":[{"conditions":{"actorId":1,"actorValid":false,"itemId":1,"itemValid":false,"selfSwitchCh":"A","selfSwitchValid":false,"switch1Id":1,"switch1Valid":false,"switch2Id":1,"switch2Valid":false,"variableId":1,"variableValid":false,"variableValue":0},"directionFix":false,"image":{"characterIndex":0,"characterName":"","direction":2,"pattern":0,"tileId":0},"list":[{"code":111,"indent":0,"parameters":[0,309,1]},{"code":111,"indent":1,"parameters":[6,-1,2]},{"code":201,"indent":2,"parameters":[0,11,6,0,2,0]},{"code":0,"indent":2,"parameters":[]},{"code":412,"indent":1,"parameters":[]},{"code":0,"indent":1,"parameters":[]},{"code":412,"indent":0,"parameters":[]},{"code":0,"indent":0,"parameters":[]}],"moveFrequency":3,"moveRoute":{"list":[{"code":0,"parameters":[]}],"repeat":true,"skippable":false,"wait":false},"moveSpeed":3,"moveType":0,"priorityType":0,"stepAnime":false,"through":true,"trigger":1,"walkAnime":true}],"x":6,"y":25},
{"id":16,"name":"EV016","note":"","pages":[{"conditions":{"actorId":1,"actorValid":false,"itemId":1,"itemValid":false,"selfSwitchCh":"A","selfSwitchValid":false,"switch1Id":1,"switch1Valid":false,"switch2Id":1,"switch2Valid":false,"variableId":1,"variableValid":false,"variableValue":0},"directionFix":false,"image":{"characterIndex":0,"characterName":"","direction":2,"pattern":0,"tileId":0},"list":[{"code":111,"indent":0,"parameters":[0,309,1]},{"code":111,"indent":1,"parameters":[6,-1,2]},{"code":201,"indent":2,"parameters":[0,11,7,0,2,0]},{"code":0,"indent":2,"parameters":[]},{"code":412,"indent":1,"parameters":[]},{"code":0,"indent":1,"parameters":[]},{"code":412,"indent":0,"parameters":[]},{"code":0,"indent":0,"parameters":[]}],"moveFrequency":3,"moveRoute":{"list":[{"code":0,"parameters":[]}],"repeat":true,"skippable":false,"wait":false},"moveSpeed":3,"moveType":0,"priorityType":0,"stepAnime":false,"through":true,"trigger":1,"walkAnime":true}],"x":7,"y":25},
{"id":17,"name":"EV017","note":"","pages":[{"conditions":{"actorId":1,"actorValid":false,"itemId":1,"itemValid":false,"selfSwitchCh":"A","selfSwitchValid":false,"switch1Id":1,"switch1Valid":false,"switch2Id":1,"switch2Valid":false,"variableId":1,"variableValid":false,"variableValue":0},"directionFix":false,"image":{"characterIndex":0,"characterName":"","direction":2,"pattern":0,"tileId":0},"list":[{"code":111,"indent":0,"parameters":[0,309,1]},{"code":111,"indent":1,"parameters":[6,-1,2]},{"code":201,"indent":2,"parameters":[0,11,8,0,2,0]},{"code":0,"indent":2,"parameters":[]},{"code":412,"indent":1,"parameters":[]},{"code":0,"indent":1,"parameters":[]},{"code":412,"indent":0,"parameters":[]},{"code":0,"indent":0,"parameters":[]}],"moveFrequency":3,"moveRoute":{"list":[{"code":0,"parameters":[]}],"repeat":true,"skippable":false,"wait":false},"moveSpeed":3,"moveType":0,"priorityType":0,"stepAnime":false,"through":true,"trigger":1,"walkAnime":true}],"x":8,"y":25},
{"id":18,"name":"EV018","note":"","pages":[{"conditions":{"actorId":1,"actorValid":false,"itemId":1,"itemValid":false,"selfSwitchCh":"A","selfSwitchValid":false,"switch1Id":1,"switch1Valid":false,"switch2Id":1,"switch2Valid":false,"variableId":1,"variableValid":false,"variableValue":0},"directionFix":false,"image":{"characterIndex":0,"characterName":"","direction":2,"pattern":0,"tileId":0},"list":[{"code":111,"indent":0,"parameters":[0,309,1]},{"code":111,"indent":1,"parameters":[6,-1,2]},{"code":201,"indent":2,"parameters":[0,11,9,0,2,0]},{"code":0,"indent":2,"parameters":[]},{"code":412,"indent":1,"parameters":[]},{"code":0,"indent":1,"parameters":[]},{"code":412,"indent":0,"parameters":[]},{"code":0,"indent":0,"parameters":[]}],"moveFrequency":3,"moveRoute":{"list":[{"code":0,"parameters":[]}],"repeat":true,"skippable":false,"wait":false},"moveSpeed":3,"moveType":0,"priorityType":0,"stepAnime":false,"through":true,"trigger":1,"walkAnime":true}],"x":9,"y":25},
{"id":19,"name":"EV019","note":"","pages":[{"conditions":{"actorId":1,"actorValid":false,"itemId":1,"itemValid":false,"selfSwitchCh":"A","selfSwitchValid":false,"switch1Id":1,"switch1Valid":false,"switch2Id":1,"switch2Valid":false,"variableId":1,"variableValid":false,"variableValue":0},"directionFix":false,"image":{"characterIndex":0,"characterName":"","direction":2,"pattern":0,"tileId":0},"list":[{"code":111,"indent":0,"parameters":[0,309,1]},{"code":111,"indent":1,"parameters":[6,-1,2]},{"code":201,"indent":2,"parameters":[0,11,10,0,2,0]},{"code":0,"indent":2,"parameters":[]},{"code":412,"indent":1,"parameters":[]},{"code":0,"indent":1,"parameters":[]},{"code":412,"indent":0,"parameters":[]},{"code":0,"indent":0,"parameters":[]}],"moveFrequency":3,"moveRoute":{"list":[{"code":0,"parameters":[]}],"repeat":true,"skippable":false,"wait":false},"moveSpeed":3,"moveType":0,"priorityType":0,"stepAnime":false,"through":true,"trigger":1,"walkAnime":true}],"x":10,"y":25},
{"id":20,"name":"EV020","note":"","pages":[{"conditions":{"actorId":1,"actorValid":false,"itemId":1,"itemValid":false,"selfSwitchCh":"A","selfSwitchValid":false,"switch1Id":1,"switch1Valid":false,"switch2Id":1,"switch2Valid":false,"variableId":1,"variableValid":false,"variableValue":0},"directionFix":false,"image":{"characterIndex":0,"characterName":"","direction":2,"pattern":0,"tileId":0},"list":[{"code":111,"indent":0,"parameters":[0,309,1]},{"code":111,"indent":1,"parameters":[6,-1,2]},{"code":201,"indent":2,"parameters":[0,11,11,0,2,0]},{"code":0,"indent":2,"parameters":[]},{"code":412,"indent":1,"parameters":[]},{"code":0,"indent":1,"parameters":[]},{"code":412,"indent":0,"parameters":[]},{"code":0,"indent":0,"parameters":[]}],"moveFrequency":3,"moveRoute":{"list":[{"code":0,"parameters":[]}],"repeat":true,"skippable":false,"wait":false},"moveSpeed":3,"moveType":0,"priorityType":0,"stepAnime":false,"through":true,"trigger":1,"walkAnime":true}],"x":11,"y":25},
{"id":21,"name":"EV021","note":"","pages":[{"conditions":{"actorId":1,"actorValid":false,"itemId":1,"itemValid":false,"selfSwitchCh":"A","selfSwitchValid":false,"switch1Id":1,"switch1Valid":false,"switch2Id":1,"switch2Valid":false,"variableId":1,"variableValid":false,"variableValue":0},"directionFix":false,"image":{"characterIndex":0,"characterName":"","direction":2,"pattern":0,"tileId":0},"list":[{"code":111,"indent":0,"parameters":[0,309,1]},{"code":111,"indent":1,"parameters":[6,-1,2]},{"code":201,"indent":2,"parameters":[0,11,12,0,2,0]},{"code":0,"indent":2,"parameters":[]},{"code":412,"indent":1,"parameters":[]},{"code":0,"indent":1,"parameters":[]},{"code":412,"indent":0,"parameters":[]},{"code":0,"indent":0,"parameters":[]}],"moveFrequency":3,"moveRoute":{"list":[{"code":0,"parameters":[]}],"repeat":true,"skippable":false,"wait":false},"moveSpeed":3,"moveType":0,"priorityType":0,"stepAnime":false,"through":true,"trigger":1,"walkAnime":true}],"x":12,"y":25},
{"id":22,"name":"EV022","note":"","pages":[{"conditions":{"actorId":1,"actorValid":false,"itemId":1,"itemValid":false,"selfSwitchCh":"A","selfSwitchValid":false,"switch1Id":1,"switch1Valid":false,"switch2Id":1,"switch2Valid":false,"variableId":1,"variableValid":false,"variableValue":0},"directionFix":false,"image":{"characterIndex":0,"characterName":"","direction":2,"pattern":0,"tileId":0},"list":[{"code":111,"indent":0,"parameters":[0,309,1]},{"code":111,"indent":1,"parameters":[6,-1,8]},{"code":201,"indent":2,"parameters":[0,13,5,31,8,0]},{"code":0,"indent":2,"parameters":[]},{"code":412,"indent":1,"parameters":[]},{"code":0,"indent":1,"parameters":[]},{"code":412,"indent":0,"parameters":[]},{"code":0,"indent":0,"parameters":[]}],"moveFrequency":3,"moveRoute":{"list":[{"code":0,"parameters":[]}],"repeat":true,"skippable":false,"wait":false},"moveSpeed":3,"moveType":0,"priorityType":0,"stepAnime":false,"through":true,"trigger":1,"walkAnime":true}],"x":5,"y":0},
{"id":23,"name":"EV023","note":"","pages":[{"conditions":{"actorId":1,"actorValid":false,"itemId":1,"itemValid":false,"selfSwitchCh":"A","selfSwitchValid":false,"switch1Id":1,"switch1Valid":false,"switch2Id":1,"switch2Valid":false,"variableId":1,"variableValid":false,"variableValue":0},"directionFix":false,"image":{"characterIndex":0,"characterName":"","direction":2,"pattern":0,"tileId":0},"list":[{"code":111,"indent":0,"parameters":[0,309,1]},{"code":111,"indent":1,"parameters":[6,-1,8]},{"code":201,"indent":2,"parameters":[0,13,6,31,8,0]},{"code":0,"indent":2,"parameters":[]},{"code":412,"indent":1,"parameters":[]},{"code":0,"indent":1,"parameters":[]},{"code":412,"indent":0,"parameters":[]},{"code":0,"indent":0,"parameters":[]}],"moveFrequency":3,"moveRoute":{"list":[{"code":0,"parameters":[]}],"repeat":true,"skippable":false,"wait":false},"moveSpeed":3,"moveType":0,"priorityType":0,"stepAnime":false,"through":true,"trigger":1,"walkAnime":true}],"x":6,"y":0},
{"id":24,"name":"EV024","note":"","pages":[{"conditions":{"actorId":1,"actorValid":false,"itemId":1,"itemValid":false,"selfSwitchCh":"A","selfSwitchValid":false,"switch1Id":1,"switch1Valid":false,"switch2Id":1,"switch2Valid":false,"variableId":1,"variableValid":false,"variableValue":0},"directionFix":false,"image":{"characterIndex":0,"characterName":"","direction":2,"pattern":0,"tileId":0},"list":[{"code":111,"indent":0,"parameters":[0,309,1]},{"code":111,"indent":1,"parameters":[6,-1,8]},{"code":201,"indent":2,"parameters":[0,13,7,31,8,0]},{"code":0,"indent":2,"parameters":[]},{"code":412,"indent":1,"parameters":[]},{"code":0,"indent":1,"parameters":[]},{"code":412,"indent":0,"parameters":[]},{"code":0,"indent":0,"parameters":[]}],"moveFrequency":3,"moveRoute":{"list":[{"code":0,"parameters":[]}],"repeat":true,"skippable":false,"wait":false},"moveSpeed":3,"moveType":0,"priorityType":0,"stepAnime":false,"through":true,"trigger":1,"walkAnime":true}],"x":7,"y":0},
{"id":25,"name":"EV025","note":"","pages":[{"conditions":{"actorId":1,"actorValid":false,"itemId":1,"itemValid":false,"selfSwitchCh":"A","selfSwitchValid":false,"switch1Id":1,"switch1Valid":false,"switch2Id":1,"switch2Valid":false,"variableId":1,"variableValid":false,"variableValue":0},"directionFix":false,"image":{"characterIndex":0,"characterName":"","direction":2,"pattern":0,"tileId":0},"list":[{"code":117,"indent":0,"parameters":[168]},{"code":0,"indent":0,"parameters":[]}],"moveFrequency":3,"moveRoute":{"list":[{"code":0,"parameters":[]}],"repeat":true,"skippable":false,"wait":false},"moveSpeed":3,"moveType":0,"priorityType":0,"stepAnime":false,"through":true,"trigger":1,"walkAnime":true}],"x":15,"y":7},
{"id":26,"name":"EV026","note":"","pages":[{"conditions":{"actorId":1,"actorValid":false,"itemId":1,"itemValid":false,"selfSwitchCh":"A","selfSwitchValid":false,"switch1Id":82,"switch1Valid":false,"switch2Id":1,"switch2Valid":false,"variableId":1,"variableValid":false,"variableValue":0},"directionFix":false,"image":{"characterIndex":0,"characterName":"","direction":2,"pattern":0,"tileId":0},"list":[{"code":108,"indent":0,"parameters":["LIGHT 1 [255,255,255,5] true B"]},{"code":0,"indent":0,"parameters":[]}],"moveFrequency":3,"moveRoute":{"list":[{"code":0,"parameters":[]}],"repeat":true,"skippable":false,"wait":false},"moveSpeed":3,"moveType":0,"priorityType":0,"stepAnime":false,"through":false,"trigger":4,"walkAnime":true}],"x":15,"y":6}
]
}