{
"autoplayBgm":false,"autoplayBgs":false,"battleback1Name":"","battleback2Name":"","bgm":{"name":"","pan":0,"pitch":100,"volume":90},"bgs":{"name":"","pan":0,"pitch":100,"volume":90},"disableDashing":false,"displayName":"","encounterList":[],"encounterStep":30,"height":13,"note":"","parallaxLoopX":false,"parallaxLoopY":false,"parallaxName":"","parallaxShow":true,"parallaxSx":0,"parallaxSy":0,"scrollType":0,"specifyBattleback":false,"tilesetId":6,"width":17,
"data":[1536,1536,7139,7138,7138,7138,7138,7138,7138,7138,7138,7138,7138,7142,1536,1536,1536,1536,1536,7145,7144,7144,7144,7144,7144,7144,7144,7144,7144,7144,7148,1536,1536,1536,1536,1536,1585,1585,1585,1585,1585,1585,1585,1585,1585,1585,1585,1585,1536,1536,1536,1536,1536,1585,1585,1585,1585,1585,1585,1585,1585,1585,1585,1585,1585,1536,1536,1536,1536,1536,1585,1585,1585,1585,1585,1585,1585,1585,1585,1585,1585,1585,1536,1536,1536,1536,1536,1585,1585,1585,1585,1585,1585,1585,1585,1585,1585,1585,1585,1536,1536,1536,1536,1536,1585,1585,1585,1585,1585,1585,1585,1585,1585,1585,1585,1585,1536,1536,1536,1536,1536,1585,1585,1585,1585,1585,1585,1585,1585,1585,1585,1585,1585,1536,1536,1536,1536,1536,1585,1585,1585,1585,1585,1585,1585,1585,1585,1585,1585,1585,1536,1536,1536,1536,1536,1585,1585,1585,1585,1585,1585,1585,1585,1585,1585,1585,1585,1536,1536,1536,1536,1536,1585,1585,1585,1585,1585,1585,1585,1585,1585,1585,1585,1585,1536,1536,1536,1536,1536,1536,1536,1536,1585,1536,1536,1536,1536,1536,1536,1536,1536,1536,1536,1536,1536,1536,1536,1536,1536,1536,1536,1536,1536,1536,1536,1536,1536,1536,1536,1536,1536,0,0,0,0,0,0,0,0,0,0,0,0,0,0,0,0,0,0,0,0,0,0,0,0,0,0,0,0,0,0,0,0,0,0,0,0,0,0,0,0,0,0,0,0,0,0,0,0,0,0,0,0,0,0,0,0,0,0,0,0,0,0,0,0,0,0,0,0,0,0,0,0,0,0,0,0,0,0,0,0,0,0,0,0,0,0,0,0,0,0,0,0,0,0,0,0,0,0,0,0,0,0,0,0,0,0,0,0,0,0,0,0,0,0,0,0,0,0,0,0,0,0,0,0,0,0,0,0,0,0,0,0,0,0,0,0,0,0,0,0,0,0,0,0,0,0,0,0,0,0,0,0,0,0,0,0,0,0,0,0,0,0,0,0,0,0,0,0,0,0,0,0,0,0,0,0,0,0,0,0,0,0,0,0,0,0,0,0,0,0,0,0,0,0,0,0,0,0,0,0,0,0,0,0,0,0,0,0,0,0,0,0,0,0,0,0,0,0,0,0,0,0,0,0,78,0,0,0,0,0,0,0,0,0,0,0,0,0,0,0,0,0,0,0,86,0,0,86,213,0,0,0,0,0,0,0,0,201,0,0,0,0,0,0,0,221,213,208,221,0,0,0,0,0,0,0,0,0,0,0,0,0,0,221,221,0,0,0,0,0,0,0,0,0,0,0,0,0,0,0,0,0,0,0,0,0,0,0,0,0,0,0,0,0,0,0,0,0,0,0,0,0,0,0,0,0,0,0,0,0,0,0,0,0,0,0,190,0,0,0,0,0,0,0,194,0,0,0,0,0,0,0,167,0,0,0,0,0,0,0,0,202,0,0,0,0,0,0,0,175,0,0,0,0,0,0,0,0,0,0,0,0,0,0,0,0,0,0,0,0,0,0,0,0,0,0,0,0,0,0,0,0,0,175,0,0,0,0,0,0,0,0,0,0,0,0,0,0,0,0,0,0,0,0,0,0,0,0,0,0,0,0,0,0,0,0,0,0,0,0,0,0,0,0,0,319,78,319,78,286,0,78,0,319,140,319,0,0,0,0,0,193,193,192,192,310,211,211,295,180,213,213,213,0,0,0,0,0,295,201,200,200,283,219,219,303,188,209,326,212,0,0,0,0,0,303,0,0,0,0,0,0,0,0,217,216,220,0,0,0,0,0,194,195,194,195,194,194,194,195,0,0,0,0,0,0,0,0,0,202,203,202,203,202,202,202,203,0,0,182,182,0,0,0,0,0,0,0,0,0,0,0,0,0,0,0,190,294,0,0,0,0,0,195,195,195,195,195,195,194,194,0,0,129,302,0,0,0,0,0,203,203,203,203,203,203,202,202,0,0,133,155,0,0,0,0,0,210,210,293,0,0,0,0,0,0,295,167,0,0,0,0,0,0,218,218,301,0,275,0,0,0,0,303,142,0,0,0,0,0,0,0,0,0,0,0,0,0,0,0,0,0,0,0,0,0,0,0,0,0,0,0,0,0,0,0,0,0,0,0,0,0,0,0,0,0,0,0,0,0,0,0,0,0,0,0,0,0,0,0,0,0,0,0,0,0,0,0,0,0,0,12,12,12,5,0,0,0,0,0,0,0,0,0,0,0,0,0,0,0,0,0,0,0,0,0,0,0,0,0,0,0,0,0,0,0,0,0,0,0,0,0,0,0,0,0,0,0,0,0,0,0,0,0,0,0,0,0,0,0,0,0,0,0,0,0,0,0,0,0,0,0,0,0,0,0,0,0,0,0,0,0,0,0,0,0,0,0,0,0,0,0,0,0,0,0,0,0,0,0,0,0,0,0,0,0,0,0,0,0,0,0,0,0,0,0,0,0,0,0,0,0,0,0,0,0,0,0,0,0,0,0,0,0,0,0,0,0,0,0,0,0,0,0,0,0,0,0,0,0,0,0,0,0,0,0,0,0,0,0,0,0,0,0,0,0,0,0,0,0,0,0,0,0,0,0,0,0,0,0,0,0,0,0,0,0,0,0,0,0,0,0,0,0,0,0,0,0,0,0,0,0,0,0,0,0,0,0,0,0,0,0,0,0,0,0,0,0,0,0,0,0,0,0,0,0,0,0,0,0,0,0,0,0,0,0,0,0,0,0,0,0,0,0,0,0,0,0,0,0,0,0,0,0,0,0,0,0,0,0,0,0,0,0,0,0,0,0,0,0,0,0,0,0,0,0,0,0,0,0,0,0,0,0,0,0,0,0,0,0,0,0,0,0,0,0,0,0,0,0,0,0,0,0,0,0,0,0,0,0,0,0,0,0,0,0,0,0,0,0,0,0,0,0,0,0,0,0,0,0,0,0,0,0,0,0,0,0,0,0,0,0,0,0,0,0,0,0,0,0,0,0,0,0,0,0,0,0,0,0,0,0,0,0,0,0,0,0,0,0,0,0,0,0,0,0,0,0,0,0,0,0,0,0,0,0,0,0,0,0,0,0,0,0,0,0,0,0,0,0,0,0,0,0,0,0,0,0,0,0,0,0,0,0,0],
"events":[
null,
{"id":1,"name":"EV001","note":"","pages":[{"conditions":{"actorId":1,"actorValid":false,"itemId":1,"itemValid":false,"selfSwitchCh":"A","selfSwitchValid":false,"switch1Id":1,"switch1Valid":false,"switch2Id":1,"switch2Valid":false,"variableId":1,"variableValid":false,"variableValue":0},"directionFix":false,"image":{"characterIndex":0,"characterName":"","direction":2,"pattern":0,"tileId":0},"list":[{"code":129,"indent":0,"parameters":[4,1,false]},{"code":129,"indent":0,"parameters":[3,1,false]},{"code":129,"indent":0,"parameters":[2,1,false]},{"code":129,"indent":0,"parameters":[1,0,false]},{"code":121,"indent":0,"parameters":[3,3,0]},{"code":121,"indent":0,"parameters":[61,61,0]},{"code":121,"indent":0,"parameters":[62,62,0]},{"code":121,"indent":0,"parameters":[86,86,0]},{"code":121,"indent":0,"parameters":[87,87,0]},{"code":121,"indent":0,"parameters":[88,88,0]},{"code":121,"indent":0,"parameters":[41,41,0]},{"code":121,"indent":0,"parameters":[44,44,0]},{"code":121,"indent":0,"parameters":[65,65,0]},{"code":121,"indent":0,"parameters":[66,66,0]},{"code":121,"indent":0,"parameters":[67,67,0]},{"code":121,"indent":0,"parameters":[45,45,0]},{"code":121,"indent":0,"parameters":[43,43,0]},{"code":121,"indent":0,"parameters":[42,42,0]},{"code":126,"indent":0,"parameters":[15,0,0,1]},{"code":126,"indent":0,"parameters":[2,0,0,1]},{"code":126,"indent":0,"parameters":[3,0,0,1]},{"code":126,"indent":0,"parameters":[4,0,0,1]},{"code":126,"indent":0,"parameters":[5,0,0,1]},{"code":126,"indent":0,"parameters":[6,0,0,1]},{"code":126,"indent":0,"parameters":[7,0,0,1]},{"code":126,"indent":0,"parameters":[8,0,0,1]},{"code":126,"indent":0,"parameters":[9,0,0,1]},{"code":126,"indent":0,"parameters":[16,0,0,1]},{"code":126,"indent":0,"parameters":[13,0,0,1]},{"code":126,"indent":0,"parameters":[14,0,0,1]},{"code":126,"indent":0,"parameters":[17,0,0,1]},{"code":126,"indent":0,"parameters":[18,0,0,1]},{"code":126,"indent":0,"parameters":[19,0,0,1]},{"code":126,"indent":0,"parameters":[20,0,0,1]},{"code":126,"indent":0,"parameters":[21,0,0,1]},{"code":126,"indent":0,"parameters":[22,0,0,1]},{"code":126,"indent":0,"parameters":[23,0,0,1]},{"code":126,"indent":0,"parameters":[24,0,0,1]},{"code":126,"indent":0,"parameters":[25,0,0,1]},{"code":126,"indent":0,"parameters":[26,0,0,1]},{"code":126,"indent":0,"parameters":[30,0,0,1]},{"code":126,"indent":0,"parameters":[27,0,0,1]},{"code":126,"indent":0,"parameters":[28,0,0,1]},{"code":126,"indent":0,"parameters":[29,0,0,1]},{"code":126,"indent":0,"parameters":[31,0,0,1]},{"code":126,"indent":0,"parameters":[32,0,0,1]},{"code":126,"indent":0,"parameters":[33,0,0,1]},{"code":126,"indent":0,"parameters":[35,0,0,1]},{"code":126,"indent":0,"parameters":[38,0,0,1]},{"code":126,"indent":0,"parameters":[39,0,0,1]},{"code":126,"indent":0,"parameters":[40,0,0,1]},{"code":126,"indent":0,"parameters":[41,0,0,1]},{"code":126,"indent":0,"parameters":[42,0,0,1]},{"code":126,"indent":0,"parameters":[43,0,0,1]},{"code":126,"indent":0,"parameters":[46,0,0,1]},{"code":126,"indent":0,"parameters":[47,0,0,1]},{"code":126,"indent":0,"parameters":[48,0,0,1]},{"code":126,"indent":0,"parameters":[49,0,0,1]},{"code":126,"indent":0,"parameters":[50,0,0,1]},{"code":126,"indent":0,"parameters":[51,0,0,1]},{"code":126,"indent":0,"parameters":[52,0,0,1]},{"code":126,"indent":0,"parameters":[54,0,0,1]},{"code":126,"indent":0,"parameters":[55,0,0,1]},{"code":126,"indent":0,"parameters":[56,0,0,1]},{"code":126,"indent":0,"parameters":[57,0,0,1]},{"code":126,"indent":0,"parameters":[58,0,0,1]},{"code":126,"indent":0,"parameters":[59,0,0,1]},{"code":126,"indent":0,"parameters":[60,0,0,1]},{"code":126,"indent":0,"parameters":[61,0,0,1]},{"code":126,"indent":0,"parameters":[62,0,0,1]},{"code":126,"indent":0,"parameters":[63,0,0,1]},{"code":126,"indent":0,"parameters":[64,0,0,1]},{"code":126,"indent":0,"parameters":[65,0,0,1]},{"code":126,"indent":0,"parameters":[69,0,0,1]},{"code":126,"indent":0,"parameters":[72,0,0,1]},{"code":126,"indent":0,"parameters":[73,0,0,1]},{"code":121,"indent":0,"parameters":[1,1,0]},{"code":121,"indent":0,"parameters":[90,90,0]},{"code":121,"indent":0,"parameters":[286,286,0]},{"code":121,"indent":0,"parameters":[287,287,0]},{"code":121,"indent":0,"parameters":[84,84,0]},{"code":121,"indent":0,"parameters":[101,101,0]},{"code":122,"indent":0,"parameters":[1,1,0,0,127]},{"code":201,"indent":0,"parameters":[0,78,11,18,8,0]},{"code":214,"indent":0,"parameters":[]},{"code":0,"indent":0,"parameters":[]}],"moveFrequency":3,"moveRoute":{"list":[{"code":0,"parameters":[]}],"repeat":true,"skippable":false,"wait":false},"moveSpeed":3,"moveType":0,"priorityType":0,"stepAnime":false,"through":false,"trigger":1,"walkAnime":true}],"x":8,"y":6},
{"id":2,"name":"EV002","note":"","pages":[{"conditions":{"actorId":1,"actorValid":false,"itemId":1,"itemValid":false,"selfSwitchCh":"A","selfSwitchValid":false,"switch1Id":1,"switch1Valid":false,"switch2Id":1,"switch2Valid":false,"variableId":1,"variableValid":false,"variableValue":0},"directionFix":false,"image":{"characterIndex":0,"characterName":"","direction":2,"pattern":0,"tileId":0},"list":[{"code":121,"indent":0,"parameters":[63,63,0]},{"code":121,"indent":0,"parameters":[3,3,0]},{"code":121,"indent":0,"parameters":[86,86,0]},{"code":121,"indent":0,"parameters":[87,87,0]},{"code":121,"indent":0,"parameters":[88,88,0]},{"code":121,"indent":0,"parameters":[90,90,0]},{"code":121,"indent":0,"parameters":[41,41,0]},{"code":121,"indent":0,"parameters":[61,61,0]},{"code":121,"indent":0,"parameters":[62,62,0]},{"code":121,"indent":0,"parameters":[65,65,0]},{"code":121,"indent":0,"parameters":[66,66,0]},{"code":121,"indent":0,"parameters":[67,67,0]},{"code":126,"indent":0,"parameters":[1,0,0,1]},{"code":126,"indent":0,"parameters":[14,0,0,1]},{"code":126,"indent":0,"parameters":[3,0,0,1]},{"code":126,"indent":0,"parameters":[2,0,0,1]},{"code":126,"indent":0,"parameters":[16,0,0,1]},{"code":126,"indent":0,"parameters":[32,0,0,1]},{"code":126,"indent":0,"parameters":[33,0,0,1]},{"code":126,"indent":0,"parameters":[5,0,0,1]},{"code":126,"indent":0,"parameters":[25,0,0,1]},{"code":126,"indent":0,"parameters":[22,0,0,1]},{"code":126,"indent":0,"parameters":[26,0,0,1]},{"code":126,"indent":0,"parameters":[20,0,0,1]},{"code":126,"indent":0,"parameters":[19,0,0,1]},{"code":126,"indent":0,"parameters":[17,0,0,1]},{"code":126,"indent":0,"parameters":[42,0,0,1]},{"code":126,"indent":0,"parameters":[44,0,0,1]},{"code":126,"indent":0,"parameters":[35,0,0,1]},{"code":126,"indent":0,"parameters":[49,0,0,1]},{"code":126,"indent":0,"parameters":[38,0,0,1]},{"code":126,"indent":0,"parameters":[39,0,0,1]},{"code":126,"indent":0,"parameters":[40,0,0,1]},{"code":126,"indent":0,"parameters":[51,0,0,1]},{"code":126,"indent":0,"parameters":[52,0,0,1]},{"code":126,"indent":0,"parameters":[53,0,0,1]},{"code":126,"indent":0,"parameters":[54,0,0,1]},{"code":126,"indent":0,"parameters":[50,0,0,1]},{"code":126,"indent":0,"parameters":[4,0,0,1]},{"code":126,"indent":0,"parameters":[56,0,0,1]},{"code":126,"indent":0,"parameters":[60,0,0,1]},{"code":126,"indent":0,"parameters":[61,0,0,1]},{"code":126,"indent":0,"parameters":[62,0,0,1]},{"code":126,"indent":0,"parameters":[57,0,0,1]},{"code":126,"indent":0,"parameters":[64,0,0,1]},{"code":126,"indent":0,"parameters":[65,0,0,1]},{"code":126,"indent":0,"parameters":[74,0,0,1]},{"code":126,"indent":0,"parameters":[69,0,0,1]},{"code":126,"indent":0,"parameters":[28,0,0,1]},{"code":0,"indent":0,"parameters":[]}],"moveFrequency":3,"moveRoute":{"list":[{"code":0,"parameters":[]}],"repeat":true,"skippable":false,"wait":false},"moveSpeed":3,"moveType":0,"priorityType":0,"stepAnime":false,"through":false,"trigger":0,"walkAnime":true}],"x":6,"y":6}
]
}